0001_0074_0039_0090_0090.jpg 1 74 39 90 90
0002_0041_0118_0094_0094.jpg 1 41 118 94 94
0003_0075_0053_0160_0160.jpg 1 75 53 160 160
0004_0067_0074_0122_0122.jpg 1 67 74 122 122
0005_0160_0081_0274_0274.jpg 1 160 81 274 274
0006_0087_0199_0141_0141.jpg 1 87 199 141 141
0007_0032_0027_0132_0132.jpg 1 32 27 132 132
0008_0241_0077_0326_0326.jpg 1 241 77 326 326
0009_0127_0030_0215_0215.jpg 1 127 30 215 215
0010_0101_0115_0289_0289.jpg 1 101 115 289 289
0011_0073_0095_0134_0134.jpg 1 73 95 134 134
0012_0195_0050_0107_0107.jpg 1 195 50 107 107
0013_0092_0016_0079_0079.jpg 1 92 16 79 79
0014_0152_0028_0098_0098.jpg 1 152 28 98 98
0015_0344_0199_0249_0249.jpg 1 344 199 249 249
0016_0179_0061_0073_0073.jpg 1 179 61 73 73
0017_0218_0061_0290_0290.jpg 1 218 61 290 290
0018_0127_0057_0048_0048.jpg 1 127 57 48 48
0019_0237_0026_0237_0237.jpg 1 237 26 237 237
0020_0254_0164_0245_0245.jpg 1 254 164 245 245
0021_0036_0066_0141_0141.jpg 1 36 66 141 141
0022_0148_0040_0148_0148.jpg 1 148 40 148 148
0023_0149_0044_0150_0150.jpg 1 149 44 150 150
0024_0032_0117_0316_0316.jpg 1 32 117 316 316
0025_0021_0019_0139_0139.jpg 1 21 19 139 139
0026_0294_0031_0241_0241.jpg 1 294 31 241 241
0027_0100_0262_0161_0161.jpg 1 100 262 161 161
0028_0273_0223_0070_0070.jpg 1 273 223 70 70
0029_0120_0029_0148_0148.jpg 1 120 29 148 148
0030_0165_0095_0079_0079.jpg 1 165 95 79 79
0031_0210_0297_0180_0180.jpg 1 210 297 180 180
0032_0245_0132_0177_0177.jpg 1 245 132 177 177
0033_0063_0041_0335_0335.jpg 1 63 41 335 335
0034_0146_0014_0094_0094.jpg 1 146 14 94 94
0035_0084_0077_0155_0155.jpg 1 84 77 155 155
0036_0037_0024_0159_0159.jpg 1 37 24 159 159
0037_0066_0087_0104_0104.jpg 1 66 87 104 104
0038_0049_0077_0066_0066.jpg 1 49 77 66 66
0039_0111_0131_0326_0326.jpg 1 111 131 326 326
0040_0077_0035_0104_0104.jpg 1 77 35 104 104
0041_0167_0175_0219_0219.jpg 1 167 175 219 219
0042_0193_0132_0199_0199.jpg 1 193 132 199 199
0043_0091_0020_0099_0099.jpg 1 91 20 99 99
0044_0066_0045_0319_0319.jpg 1 66 45 319 319
0045_0050_0333_0127_0127.jpg 1 50 333 127 127
0046_0150_0262_0168_0168.jpg 1 150 262 168 168
0047_0040_0229_0330_0330.jpg 1 40 229 330 330
0048_0065_0096_0109_0109.jpg 1 65 96 109 109
0049_0093_0116_0202_0202.jpg 1 93 116 202 202
0050_0351_0051_0152_0152.jpg 1 351 51 152 152
