0001_0156_0359_0213_0213.jpg 1 156 359 213 213
0002_0160_0258_0178_0178.jpg 1 160 258 178 178
0003_0296_0178_0253_0253.jpg 1 296 178 253 253
0004_0329_0055_0067_0067.jpg 1 329 55 67 67
0005_0034_0029_0153_0153.jpg 1 34 29 153 153
0006_0136_0036_0056_0056.jpg 1 136 36 56 56
0007_0083_0129_0062_0062.jpg 1 83 129 62 62
0008_0120_0056_0328_0328.jpg 1 120 56 328 328
0009_0288_0129_0229_0229.jpg 1 288 129 229 229
0010_0027_0019_0158_0158.jpg 1 27 19 158 158
0011_0206_0022_0053_0053.jpg 1 206 22 53 53
0012_0063_0070_0124_0124.jpg 1 63 70 124 124
0013_0272_0122_0164_0164.jpg 1 272 122 164 164
0014_0184_0247_0118_0118.jpg 1 184 247 118 118
0015_0234_0319_0159_0159.jpg 1 234 319 159 159
0016_0045_0104_0099_0099.jpg 1 45 104 99 99
0017_0097_0300_0243_0243.jpg 1 97 300 243 243
0018_0104_0087_0113_0113.jpg 1 104 87 113 113
0019_0288_0322_0096_0096.jpg 1 288 322 96 96
0020_0119_0042_0116_0116.jpg 1 119 42 116 116
0021_0109_0044_0108_0108.jpg 1 109 44 108 108
0022_0090_0223_0186_0186.jpg 1 90 223 186 186
0023_0047_0011_0132_0132.jpg 1 47 11 132 132
0024_0104_0030_0117_0117.jpg 1 104 30 117 117
0025_0038_0015_0132_0132.jpg 1 38 15 132 132
0026_0056_0013_0123_0123.jpg 1 56 13 123 123
0027_0249_0195_0251_0251.jpg 1 249 195 251 251
0028_0115_0038_0119_0119.jpg 1 115 38 119 119
0029_0089_0104_0333_0333.jpg 1 89 104 333 333
0030_0104_0118_0250_0250.jpg 1 104 118 250 250
0031_0191_0239_0213_0213.jpg 1 191 239 213 213
0032_0065_0010_0155_0155.jpg 1 65 10 155 155
0033_0102_0045_0109_0109.jpg 1 102 45 109 109
0034_0109_0031_0149_0149.jpg 1 109 31 149 149
0035_0122_0154_0268_0268.jpg 1 122 154 268 268
0036_0177_0521_0055_0055.jpg 1 177 521 55 55
0037_0214_0096_0128_0128.jpg 1 214 96 128 128
0038_0098_0077_0111_0111.jpg 1 98 77 111 111
0039_0067_0040_0073_0073.jpg 1 67 40 73 73
0040_0074_0094_0116_0116.jpg 1 74 94 116 116
0041_0060_0032_0308_0308.jpg 1 60 32 308 308
0042_0350_0196_0069_0069.jpg 1 350 196 69 69
0043_0058_0054_0110_0110.jpg 1 58 54 110 110
0044_0089_0051_0158_0158.jpg 1 89 51 158 158
0045_0064_0091_0084_0084.jpg 1 64 91 84 84
0046_0056_0114_0168_0168.jpg 1 56 114 168 168
0047_0306_0111_0279_0279.jpg 1 306 111 279 279
0048_0028_0050_0224_0224.jpg 1 28 50 224 224
0049_0209_0118_0166_0166.jpg 1 209 118 166 166
0050_0133_0115_0302_0302.jpg 1 133 115 302 302
