0001_0206_0021_0080_0080.jpg 1 206 21 80 80
0002_0170_0105_0068_0068.jpg 1 170 105 68 68
0003_0258_0204_0203_0203.jpg 1 258 204 203 203
0004_0129_0135_0078_0078.jpg 1 129 135 78 78
0005_0154_0044_0112_0112.jpg 1 154 44 112 112
0006_0294_0119_0262_0262.jpg 1 294 119 262 262
0007_0217_0071_0270_0270.jpg 1 217 71 270 270
0008_0054_0145_0237_0237.jpg 1 54 145 237 237
0009_0377_0070_0133_0133.jpg 1 377 70 133 133
0010_0107_0089_0114_0114.jpg 1 107 89 114 114
0011_0084_0065_0160_0160.jpg 1 84 65 160 160
0012_0217_0042_0322_0322.jpg 1 217 42 322 322
0013_0033_0056_0133_0133.jpg 1 33 56 133 133
0014_0103_0057_0093_0093.jpg 1 103 57 93 93
0015_0062_0035_0098_0098.jpg 1 62 35 98 98
0016_0270_0053_0242_0242.jpg 1 270 53 242 242
0017_0038_0063_0075_0075.jpg 1 38 63 75 75
0018_0031_0067_0125_0125.jpg 1 31 67 125 125
0019_0093_0012_0153_0153.jpg 1 93 12 153 153
0020_0058_0142_0059_0059.jpg 1 58 142 59 59
0021_0016_0132_0093_0093.jpg 1 16 132 93 93
0022_0078_0086_0138_0138.jpg 1 78 86 138 138
0023_0268_0094_0294_0294.jpg 1 268 94 294 294
0024_0020_0024_0095_0095.jpg 1 20 24 95 95
0025_0172_0308_0219_0219.jpg 1 172 308 219 219
0026_0261_0113_0269_0269.jpg 1 261 113 269 269
0027_0077_0031_0144_0144.jpg 1 77 31 144 144
0028_0054_0104_0099_0099.jpg 1 54 104 99 99
0029_0425_0252_0155_0155.jpg 1 425 252 155 155
0030_0103_0105_0048_0048.jpg 1 103 105 48 48
0031_0306_0090_0259_0259.jpg 1 306 90 259 259
0032_0039_0208_0225_0225.jpg 1 39 208 225 225
0033_0108_0063_0057_0057.jpg 1 108 63 57 57
0034_0047_0062_0079_0079.jpg 1 47 62 79 79
0035_0139_0014_0162_0162.jpg 1 139 14 162 162
0036_0079_0079_0071_0071.jpg 1 79 79 71 71
0037_0041_0069_0092_0092.jpg 1 41 69 92 92
0038_0277_0108_0292_0292.jpg 1 277 108 292 292
0039_0106_0171_0139_0139.jpg 1 106 171 139 139
0040_0071_0029_0096_0096.jpg 1 71 29 96 96
0041_0057_0161_0056_0056.jpg 1 57 161 56 56
0042_0031_0036_0082_0082.jpg 1 31 36 82 82
0043_0089_0036_0065_0065.jpg 1 89 36 65 65
0044_0065_0124_0160_0160.jpg 1 65 124 160 160
0045_0197_0122_0229_0229.jpg 1 197 122 229 229
0046_0114_0123_0086_0086.jpg 1 114 123 86 86
0047_0148_0017_0134_0134.jpg 1 148 17 134 134
0048_0202_0103_0295_0295.jpg 1 202 103 295 295
0049_0087_0100_0084_0084.jpg 1 87 100 84 84
0050_0090_0012_0085_0085.jpg 1 90 12 85 85
