0001_0345_0095_0177_0177.jpg 1 345 95 177 177
0002_0112_0141_0272_0272.jpg 1 112 141 272 272
0003_0215_0110_0225_0225.jpg 1 215 110 225 225
0004_0182_0090_0113_0113.jpg 1 182 90 113 113
0005_0100_0072_0085_0085.jpg 1 100 72 85 85
0006_0109_0010_0154_0154.jpg 1 109 10 154 154
0007_0314_0094_0100_0100.jpg 1 314 94 100 100
0008_0106_0012_0119_0119.jpg 1 106 12 119 119
0009_0047_0098_0280_0280.jpg 1 47 98 280 280
0010_0153_0043_0249_0249.jpg 1 153 43 249 249
0011_0404_0091_0106_0106.jpg 1 404 91 106 106
0012_0049_0077_0224_0224.jpg 1 49 77 224 224
0013_0055_0391_0144_0144.jpg 1 55 391 144 144
0014_0208_0043_0298_0298.jpg 1 208 43 298 298
0015_0228_0257_0202_0202.jpg 1 228 257 202 202
0016_0041_0021_0083_0083.jpg 1 41 21 83 83
0017_0363_0101_0209_0209.jpg 1 363 101 209 209
0018_0310_0105_0231_0231.jpg 1 310 105 231 231
0019_0209_0122_0239_0239.jpg 1 209 122 239 239
0020_0113_0084_0056_0056.jpg 1 113 84 56 56
0021_0092_0068_0318_0318.jpg 1 92 68 318 318
0022_0044_0184_0215_0215.jpg 1 44 184 215 215
0023_0086_0071_0105_0105.jpg 1 86 71 105 105
0024_0262_0134_0110_0110.jpg 1 262 134 110 110
0025_0072_0152_0049_0049.jpg 1 72 152 49 49
0026_0071_0120_0086_0086.jpg 1 71 120 86 86
0027_0412_0160_0115_0115.jpg 1 412 160 115 115
0028_0160_0073_0183_0183.jpg 1 160 73 183 183
0029_0248_0085_0285_0285.jpg 1 248 85 285 285
0030_0097_0099_0301_0301.jpg 1 97 99 301 301
0031_0068_0171_0210_0210.jpg 1 68 171 210 210
0032_0125_0039_0115_0115.jpg 1 125 39 115 115
0033_0078_0059_0155_0155.jpg 1 78 59 155 155
0034_0126_0105_0272_0272.jpg 1 126 105 272 272
0035_0071_0105_0226_0226.jpg 1 71 105 226 226
0036_0043_0075_0077_0077.jpg 1 43 75 77 77
0037_0142_0037_0098_0098.jpg 1 142 37 98 98
0038_0090_0069_0077_0077.jpg 1 90 69 77 77
0039_0020_0026_0140_0140.jpg 1 20 26 140 140
0040_0067_0112_0066_0066.jpg 1 67 112 66 66
0041_0049_0042_0123_0123.jpg 1 49 42 123 123
0042_0370_0095_0145_0145.jpg 1 370 95 145 145
0043_0279_0288_0133_0133.jpg 1 279 288 133 133
0044_0072_0033_0068_0068.jpg 1 72 33 68 68
0045_0045_0051_0208_0208.jpg 1 45 51 208 208
0046_0126_0155_0243_0243.jpg 1 126 155 243 243
0047_0045_0016_0133_0133.jpg 1 45 16 133 133
0048_0064_0056_0064_0064.jpg 1 64 56 64 64
0049_0150_0026_0129_0129.jpg 1 150 26 129 129
0050_0175_0026_0087_0087.jpg 1 175 26 87 87
