0001_0153_0232_0053_0053.jpg 1 153 232 53 53
0002_0222_0063_0203_0203.jpg 1 222 63 203 203
0003_0098_0158_0052_0052.jpg 1 98 158 52 52
0004_0078_0086_0073_0073.jpg 1 78 86 73 73
0005_0261_0075_0261_0261.jpg 1 261 75 261 261
0006_0119_0117_0204_0204.jpg 1 119 117 204 204
0007_0088_0045_0166_0166.jpg 1 88 45 166 166
0008_0091_0007_0137_0137.jpg 1 91 7 137 137
0009_0165_0083_0284_0284.jpg 1 165 83 284 284
0010_0119_0064_0333_0333.jpg 1 119 64 333 333
0011_0056_0074_0100_0100.jpg 1 56 74 100 100
0012_0077_0072_0077_0077.jpg 1 77 72 77 77
0013_0434_0321_0068_0068.jpg 1 434 321 68 68
0014_0131_0022_0114_0114.jpg 1 131 22 114 114
0015_0378_0070_0106_0106.jpg 1 378 70 106 106
0016_0188_0133_0266_0266.jpg 1 188 133 266 266
0017_0025_0063_0165_0165.jpg 1 25 63 165 165
0018_0317_0070_0257_0257.jpg 1 317 70 257 257
0019_0150_0063_0105_0105.jpg 1 150 63 105 105
0020_0212_0135_0079_0079.jpg 1 212 135 79 79
0021_0122_0132_0062_0062.jpg 1 122 132 62 62
0022_0024_0068_0111_0111.jpg 1 24 68 111 111
0023_0142_0019_0086_0086.jpg 1 142 19 86 86
0024_0165_0074_0334_0334.jpg 1 165 74 334 334
0025_0054_0080_0142_0142.jpg 1 54 80 142 142
0026_0304_0083_0291_0291.jpg 1 304 83 291 291
0027_0178_0135_0173_0173.jpg 1 178 135 173 173
0028_0110_0056_0144_0144.jpg 1 110 56 144 144
0029_0180_0036_0089_0089.jpg 1 180 36 89 89
0030_0096_0122_0087_0087.jpg 1 96 122 87 87
0031_0159_0148_0239_0239.jpg 1 159 148 239 239
0032_0288_0035_0296_0296.jpg 1 288 35 296 296
0033_0280_0230_0129_0129.jpg 1 280 230 129 129
0034_0069_0078_0125_0125.jpg 1 69 78 125 125
0035_0173_0044_0263_0263.jpg 1 173 44 263 263
0036_0281_0147_0272_0272.jpg 1 281 147 272 272
0037_0170_0412_0163_0163.jpg 1 170 412 163 163
0038_0203_0233_0095_0095.jpg 1 203 233 95 95
0039_0052_0110_0080_0080.jpg 1 52 110 80 80
0040_0138_0259_0125_0125.jpg 1 138 259 125 125
0041_0073_0081_0070_0070.jpg 1 73 81 70 70
0042_0314_0080_0120_0120.jpg 1 314 80 120 120
0043_0111_0097_0187_0187.jpg 1 111 97 187 187
0044_0385_0290_0140_0140.jpg 1 385 290 140 140
0045_0383_0137_0152_0152.jpg 1 383 137 152 152
0046_0073_0089_0108_0108.jpg 1 73 89 108 108
0047_0053_0114_0101_0101.jpg 1 53 114 101 101
0048_0063_0019_0132_0132.jpg 1 63 19 132 132
0049_0076_0069_0118_0118.jpg 1 76 69 118 118
0050_0040_0040_0114_0114.jpg 1 40 40 114 114
