0001_0020_0102_0114_0114.jpg 1 20 102 114 114
0002_0279_0214_0186_0186.jpg 1 279 214 186 186
0003_0026_0075_0110_0110.jpg 1 26 75 110 110
0004_0137_0041_0088_0088.jpg 1 137 41 88 88
0005_0076_0044_0144_0144.jpg 1 76 44 144 144
0006_0048_0061_0216_0216.jpg 1 48 61 216 216
0007_0075_0086_0181_0181.jpg 1 75 86 181 181
0008_0127_0051_0303_0303.jpg 1 127 51 303 303
0009_0028_0016_0142_0142.jpg 1 28 16 142 142
0010_0114_0017_0108_0108.jpg 1 114 17 108 108
0011_0355_0293_0146_0146.jpg 1 355 293 146 146
0012_0118_0030_0153_0153.jpg 1 118 30 153 153
0013_0375_0209_0171_0171.jpg 1 375 209 171 171
0014_0118_0044_0104_0104.jpg 1 118 44 104 104
0015_0132_0022_0125_0125.jpg 1 132 22 125 125
0016_0098_0050_0143_0143.jpg 1 98 50 143 143
0017_0360_0069_0177_0177.jpg 1 360 69 177 177
0018_0136_0142_0321_0321.jpg 1 136 142 321 321
0019_0110_0039_0273_0273.jpg 1 110 39 273 273
0020_0060_0035_0133_0133.jpg 1 60 35 133 133
0021_0141_0060_0102_0102.jpg 1 141 60 102 102
0022_0245_0170_0180_0180.jpg 1 245 170 180 180
0023_0127_0056_0146_0146.jpg 1 127 56 146 146
0024_0288_0065_0267_0267.jpg 1 288 65 267 267
0025_0333_0059_0205_0205.jpg 1 333 59 205 205
0026_0068_0041_0142_0142.jpg 1 68 41 142 142
0027_0059_0100_0077_0077.jpg 1 59 100 77 77
0028_0070_0234_0161_0161.jpg 1 70 234 161 161
0029_0380_0122_0136_0136.jpg 1 380 122 136 136
0030_0072_0091_0097_0097.jpg 1 72 91 97 97
0031_0089_0046_0053_0053.jpg 1 89 46 53 53
0032_0061_0085_0328_0328.jpg 1 61 85 328 328
0033_0226_0116_0309_0309.jpg 1 226 116 309 309
0034_0048_0074_0110_0110.jpg 1 48 74 110 110
0035_0121_0188_0235_0235.jpg 1 121 188 235 235
0036_0133_0029_0108_0108.jpg 1 133 29 108 108
0037_0090_0032_0106_0106.jpg 1 90 32 106 106
0038_0229_0051_0261_0261.jpg 1 229 51 261 261
0039_0015_0080_0100_0100.jpg 1 15 80 100 100
0040_0235_0109_0285_0285.jpg 1 235 109 285 285
0041_0246_0048_0263_0263.jpg 1 246 48 263 263
0042_0016_0054_0062_0062.jpg 1 16 54 62 62
0043_0048_0062_0074_0074.jpg 1 48 62 74 74
0044_0248_0121_0242_0242.jpg 1 248 121 242 242
0045_0025_0034_0075_0075.jpg 1 25 34 75 75
0046_0124_0057_0134_0134.jpg 1 124 57 134 134
0047_0078_0285_0249_0249.jpg 1 78 285 249 249
0048_0149_0059_0284_0284.jpg 1 149 59 284 284
0049_0198_0186_0172_0172.jpg 1 198 186 172 172
0050_0163_0180_0192_0192.jpg 1 163 180 192 192
