0001_0127_0130_0284_0284.jpg 1 127 130 284 284
0002_0326_0068_0213_0213.jpg 1 326 68 213 213
0003_0095_0165_0135_0135.jpg 1 95 165 135 135
0004_0333_0136_0251_0251.jpg 1 333 136 251 251
0005_0028_0088_0096_0096.jpg 1 28 88 96 96
0006_0075_0034_0122_0122.jpg 1 75 34 122 122
0007_0024_0096_0092_0092.jpg 1 24 96 92 92
0008_0037_0124_0059_0059.jpg 1 37 124 59 59
0009_0031_0051_0150_0150.jpg 1 31 51 150 150
0010_0148_0148_0211_0211.jpg 1 148 148 211 211
0011_0084_0068_0233_0233.jpg 1 84 68 233 233
0012_0369_0076_0083_0083.jpg 1 369 76 83 83
0013_0123_0159_0086_0086.jpg 1 123 159 86 86
0014_0179_0061_0086_0086.jpg 1 179 61 86 86
0015_0256_0062_0137_0137.jpg 1 256 62 137 137
0016_0110_0082_0135_0135.jpg 1 110 82 135 135
0017_0051_0053_0165_0165.jpg 1 51 53 165 165
0018_0169_0106_0323_0323.jpg 1 169 106 323 323
0019_0281_0216_0111_0111.jpg 1 281 216 111 111
0020_0092_0096_0160_0160.jpg 1 92 96 160 160
0021_0083_0051_0133_0133.jpg 1 83 51 133 133
0022_0025_0070_0071_0071.jpg 1 25 70 71 71
0023_0096_0067_0114_0114.jpg 1 96 67 114 114
0024_0161_0084_0108_0108.jpg 1 161 84 108 108
0025_0077_0072_0142_0142.jpg 1 77 72 142 142
0026_0168_0049_0282_0282.jpg 1 168 49 282 282
0027_0101_0112_0102_0102.jpg 1 101 112 102 102
0028_0104_0057_0080_0080.jpg 1 104 57 80 80
0029_0246_0045_0154_0154.jpg 1 246 45 154 154
0030_0177_0374_0061_0061.jpg 1 177 374 61 61
0031_0073_0292_0311_0311.jpg 1 73 292 311 311
0032_0203_0054_0087_0087.jpg 1 203 54 87 87
0033_0077_0026_0318_0318.jpg 1 77 26 318 318
0034_0058_0021_0076_0076.jpg 1 58 21 76 76
0035_0033_0019_0123_0123.jpg 1 33 19 123 123
0036_0333_0196_0094_0094.jpg 1 333 196 94 94
0037_0290_0124_0228_0228.jpg 1 290 124 228 228
0038_0316_0152_0227_0227.jpg 1 316 152 227 227
0039_0289_0140_0266_0266.jpg 1 289 140 266 266
0040_0152_0060_0061_0061.jpg 1 152 60 61 61
0041_0051_0063_0127_0127.jpg 1 51 63 127 127
0042_0077_0035_0127_0127.jpg 1 77 35 127 127
0043_0210_0131_0241_0241.jpg 1 210 131 241 241
0044_0097_0073_0090_0090.jpg 1 97 73 90 90
0045_0128_0061_0056_0056.jpg 1 128 61 56 56
0046_0029_0133_0060_0060.jpg 1 29 133 60 60
0047_0326_0274_0085_0085.jpg 1 326 274 85 85
0048_0284_0227_0097_0097.jpg 1 284 227 97 97
0049_0311_0430_0134_0134.jpg 1 311 430 134 134
0050_0167_0324_0081_0081.jpg 1 167 324 81 81
