0001_0285_0115_0238_0238.jpg 1 285 115 238 238
0002_0043_0084_0085_0085.jpg 1 43 84 85 85
0003_0086_0063_0139_0139.jpg 1 86 63 139 139
0004_0188_0054_0329_0329.jpg 1 188 54 329 329
0005_0066_0038_0142_0142.jpg 1 66 38 142 142
0006_0185_0128_0245_0245.jpg 1 185 128 245 245
0007_0082_0101_0098_0098.jpg 1 82 101 98 98
0008_0076_0048_0159_0159.jpg 1 76 48 159 159
0009_0229_0097_0256_0256.jpg 1 229 97 256 256
0010_0035_0109_0292_0292.jpg 1 35 109 292 292
0011_0191_0068_0190_0190.jpg 1 191 68 190 190
0012_0179_0080_0072_0072.jpg 1 179 80 72 72
0013_0108_0121_0065_0065.jpg 1 108 121 65 65
0014_0063_0076_0090_0090.jpg 1 63 76 90 90
0015_0057_0064_0126_0126.jpg 1 57 64 126 126
0016_0298_0059_0267_0267.jpg 1 298 59 267 267
0017_0055_0090_0121_0121.jpg 1 55 90 121 121
0018_0062_0031_0070_0070.jpg 1 62 31 70 70
0019_0166_0064_0115_0115.jpg 1 166 64 115 115
0020_0162_0163_0244_0244.jpg 1 162 163 244 244
0021_0110_0105_0143_0143.jpg 1 110 105 143 143
0022_0131_0056_0069_0069.jpg 1 131 56 69 69
0023_0125_0036_0143_0143.jpg 1 125 36 143 143
0024_0122_0235_0104_0104.jpg 1 122 235 104 104
0025_0092_0165_0254_0254.jpg 1 92 165 254 254
0026_0198_0073_0196_0196.jpg 1 198 73 196 196
0027_0044_0034_0072_0072.jpg 1 44 34 72 72
0028_0026_0078_0083_0083.jpg 1 26 78 83 83
0029_0087_0052_0116_0116.jpg 1 87 52 116 116
0030_0057_0037_0099_0099.jpg 1 57 37 99 99
0031_0289_0054_0313_0313.jpg 1 289 54 313 313
0032_0135_0082_0078_0078.jpg 1 135 82 78 78
0033_0179_0160_0235_0235.jpg 1 179 160 235 235
0034_0127_0063_0108_0108.jpg 1 127 63 108 108
0035_0098_0040_0164_0164.jpg 1 98 40 164 164
0036_0146_0210_0088_0088.jpg 1 146 210 88 88
0037_0326_0146_0249_0249.jpg 1 326 146 249 249
0038_0079_0066_0081_0081.jpg 1 79 66 81 81
0039_0121_0043_0081_0081.jpg 1 121 43 81 81
0040_0238_0184_0256_0256.jpg 1 238 184 256 256
0041_0211_0049_0049_0049.jpg 1 211 49 49 49
0042_0017_0040_0082_0082.jpg 1 17 40 82 82
0043_0114_0043_0109_0109.jpg 1 114 43 109 109
0044_0410_0156_0179_0179.jpg 1 410 156 179 179
0045_0060_0009_0158_0158.jpg 1 60 9 158 158
0046_0118_0086_0066_0066.jpg 1 118 86 66 66
0047_0101_0056_0120_0120.jpg 1 101 56 120 120
0048_0345_0087_0246_0246.jpg 1 345 87 246 246
0049_0355_0267_0172_0172.jpg 1 355 267 172 172
0050_0337_0097_0182_0182.jpg 1 337 97 182 182
