0001_0196_0014_0084_0084.jpg 1 196 14 84 84
0002_0017_0087_0114_0114.jpg 1 17 87 114 114
0003_0078_0115_0244_0244.jpg 1 78 115 244 244
0004_0094_0033_0285_0285.jpg 1 94 33 285 285
0005_0177_0194_0243_0243.jpg 1 177 194 243 243
0006_0049_0053_0083_0083.jpg 1 49 53 83 83
0007_0141_0133_0079_0079.jpg 1 141 133 79 79
0008_0362_0103_0230_0230.jpg 1 362 103 230 230
0009_0057_0243_0149_0149.jpg 1 57 243 149 149
0010_0143_0030_0122_0122.jpg 1 143 30 122 122
0011_0090_0017_0066_0066.jpg 1 90 17 66 66
0012_0046_0033_0247_0247.jpg 1 46 33 247 247
0013_0033_0100_0051_0051.jpg 1 33 100 51 51
0014_0423_0038_0126_0126.jpg 1 423 38 126 126
0015_0287_0346_0083_0083.jpg 1 287 346 83 83
0016_0238_0219_0052_0052.jpg 1 238 219 52 52
0017_0133_0258_0158_0158.jpg 1 133 258 158 158
0018_0113_0222_0226_0226.jpg 1 113 222 226 226
0019_0099_0082_0061_0061.jpg 1 99 82 61 61
0020_0055_0065_0134_0134.jpg 1 55 65 134 134
0021_0170_0158_0142_0142.jpg 1 170 158 142 142
0022_0045_0017_0116_0116.jpg 1 45 17 116 116
0023_0190_0279_0212_0212.jpg 1 190 279 212 212
0024_0405_0243_0119_0119.jpg 1 405 243 119 119
0025_0068_0051_0146_0146.jpg 1 68 51 146 146
0026_0151_0138_0202_0202.jpg 1 151 138 202 202
0027_0284_0094_0136_0136.jpg 1 284 94 136 136
0028_0024_0191_0327_0327.jpg 1 24 191 327 327
0029_0127_0180_0230_0230.jpg 1 127 180 230 230
0030_0073_0026_0127_0127.jpg 1 73 26 127 127
0031_0111_0109_0108_0108.jpg 1 111 109 108 108
0032_0074_0017_0335_0335.jpg 1 74 17 335 335
0033_0208_0059_0139_0139.jpg 1 208 59 139 139
0034_0083_0033_0070_0070.jpg 1 83 33 70 70
0035_0039_0093_0128_0128.jpg 1 39 93 128 128
0036_0177_0150_0306_0306.jpg 1 177 150 306 306
0037_0124_0203_0182_0182.jpg 1 124 203 182 182
0038_0013_0092_0085_0085.jpg 1 13 92 85 85
0039_0040_0034_0096_0096.jpg 1 40 34 96 96
0040_0242_0111_0291_0291.jpg 1 242 111 291 291
0041_0297_0091_0248_0248.jpg 1 297 91 248 248
0042_0461_0363_0052_0052.jpg 1 461 363 52 52
0043_0347_0065_0174_0174.jpg 1 347 65 174 174
0044_0139_0013_0115_0115.jpg 1 139 13 115 115
0045_0140_0048_0082_0082.jpg 1 140 48 82 82
0046_0040_0083_0104_0104.jpg 1 40 83 104 104
0047_0054_0139_0106_0106.jpg 1 54 139 106 106
0048_0184_0163_0288_0288.jpg 1 184 163 288 288
0049_0171_0237_0199_0199.jpg 1 171 237 199 199
0050_0100_0091_0132_0132.jpg 1 100 91 132 132
