0001_0186_0018_0076_0076.jpg 1 186 18 76 76
0002_0037_0017_0113_0113.jpg 1 37 17 113 113
0003_0027_0074_0051_0051.jpg 1 27 74 51 51
0004_0371_0124_0185_0185.jpg 1 371 124 185 185
0005_0151_0176_0089_0089.jpg 1 151 176 89 89
0006_0176_0192_0118_0118.jpg 1 176 192 118 118
0007_0107_0088_0317_0317.jpg 1 107 88 317 317
0008_0245_0106_0239_0239.jpg 1 245 106 239 239
0009_0035_0039_0166_0166.jpg 1 35 39 166 166
0010_0008_0085_0086_0086.jpg 1 8 85 86 86
0011_0058_0069_0099_0099.jpg 1 58 69 99 99
0012_0178_0106_0214_0214.jpg 1 178 106 214 214
0013_0257_0035_0322_0322.jpg 1 257 35 322 322
0014_0175_0322_0178_0178.jpg 1 175 322 178 178
0015_0118_0257_0192_0192.jpg 1 118 257 192 192
0016_0330_0277_0104_0104.jpg 1 330 277 104 104
0017_0292_0118_0206_0206.jpg 1 292 118 206 206
0018_0135_0061_0138_0138.jpg 1 135 61 138 138
0019_0088_0036_0167_0167.jpg 1 88 36 167 167
0020_0160_0191_0122_0122.jpg 1 160 191 122 122
0021_0364_0198_0225_0225.jpg 1 364 198 225 225
0022_0092_0123_0079_0079.jpg 1 92 123 79 79
0023_0187_0118_0234_0234.jpg 1 187 118 234 234
0024_0122_0105_0049_0049.jpg 1 122 105 49 49
0025_0063_0133_0072_0072.jpg 1 63 133 72 72
0026_0286_0060_0250_0250.jpg 1 286 60 250 250
0027_0019_0029_0077_0077.jpg 1 19 29 77 77
0028_0257_0316_0101_0101.jpg 1 257 316 101 101
0029_0088_0025_0126_0126.jpg 1 88 25 126 126
0030_0297_0078_0191_0191.jpg 1 297 78 191 191
0031_0159_0263_0235_0235.jpg 1 159 263 235 235
0032_0148_0057_0251_0251.jpg 1 148 57 251 251
0033_0396_0039_0163_0163.jpg 1 396 39 163 163
0034_0231_0172_0249_0249.jpg 1 231 172 249 249
0035_0090_0146_0052_0052.jpg 1 90 146 52 52
0036_0354_0118_0181_0181.jpg 1 354 118 181 181
0037_0118_0125_0074_0074.jpg 1 118 125 74 74
0038_0526_0278_0049_0049.jpg 1 526 278 49 49
0039_0050_0133_0075_0075.jpg 1 50 133 75 75
0040_0039_0057_0301_0301.jpg 1 39 57 301 301
0041_0052_0058_0110_0110.jpg 1 52 58 110 110
0042_0073_0066_0103_0103.jpg 1 73 66 103 103
0043_0155_0010_0092_0092.jpg 1 155 10 92 92
0044_0063_0110_0083_0083.jpg 1 63 110 83 83
0045_0177_0018_0084_0084.jpg 1 177 18 84 84
0046_0389_0131_0190_0190.jpg 1 389 131 190 190
0047_0068_0244_0314_0314.jpg 1 68 244 314 314
0048_0379_0244_0191_0191.jpg 1 379 244 191 191
0049_0114_0138_0150_0150.jpg 1 114 138 150 150
0050_0145_0107_0222_0222.jpg 1 145 107 222 222
