0001_0032_0151_0057_0057.jpg 1 32 151 57 57
0002_0024_0077_0052_0052.jpg 1 24 77 52 52
0003_0051_0081_0108_0108.jpg 1 51 81 108 108
0004_0139_0080_0202_0202.jpg 1 139 80 202 202
0005_0111_0150_0276_0276.jpg 1 111 150 276 276
0006_0122_0020_0296_0296.jpg 1 122 20 296 296
0007_0325_0149_0247_0247.jpg 1 325 149 247 247
0008_0474_0231_0100_0100.jpg 1 474 231 100 100
0009_0124_0111_0276_0276.jpg 1 124 111 276 276
0010_0107_0071_0057_0057.jpg 1 107 71 57 57
0011_0115_0177_0098_0098.jpg 1 115 177 98 98
0012_0134_0082_0084_0084.jpg 1 134 82 84 84
0013_0077_0281_0271_0271.jpg 1 77 281 271 271
0014_0060_0063_0082_0082.jpg 1 60 63 82 82
0015_0212_0110_0299_0299.jpg 1 212 110 299 299
0016_0172_0069_0100_0100.jpg 1 172 69 100 100
0017_0158_0028_0106_0106.jpg 1 158 28 106 106
0018_0088_0050_0068_0068.jpg 1 88 50 68 68
0019_0251_0119_0333_0333.jpg 1 251 119 333 333
0020_0153_0111_0231_0231.jpg 1 153 111 231 231
0021_0080_0060_0082_0082.jpg 1 80 60 82 82
0022_0016_0097_0323_0323.jpg 1 16 97 323 323
0023_0147_0296_0219_0219.jpg 1 147 296 219 219
0024_0024_0026_0110_0110.jpg 1 24 26 110 110
0025_0015_0008_0159_0159.jpg 1 15 8 159 159
0026_0193_0054_0297_0297.jpg 1 193 54 297 297
0027_0062_0319_0178_0178.jpg 1 62 319 178 178
0028_0112_0083_0063_0063.jpg 1 112 83 63 63
0029_0130_0076_0104_0104.jpg 1 130 76 104 104
0030_0284_0122_0120_0120.jpg 1 284 122 120 120
0031_0199_0106_0052_0052.jpg 1 199 106 52 52
0032_0106_0205_0256_0256.jpg 1 106 205 256 256
0033_0111_0172_0117_0117.jpg 1 111 172 117 117
0034_0287_0180_0272_0272.jpg 1 287 180 272 272
0035_0085_0030_0108_0108.jpg 1 85 30 108 108
0036_0063_0069_0096_0096.jpg 1 63 69 96 96
0037_0378_0341_0076_0076.jpg 1 378 341 76 76
0038_0024_0092_0091_0091.jpg 1 24 92 91 91
0039_0230_0114_0066_0066.jpg 1 230 114 66 66
0040_0092_0026_0158_0158.jpg 1 92 26 158 158
0041_0043_0233_0236_0236.jpg 1 43 233 236 236
0042_0054_0118_0230_0230.jpg 1 54 118 230 230
0043_0039_0106_0142_0142.jpg 1 39 106 142 142
0044_0054_0066_0113_0113.jpg 1 54 66 113 113
0045_0225_0190_0186_0186.jpg 1 225 190 186 186
0046_0214_0083_0078_0078.jpg 1 214 83 78 78
0047_0482_0194_0056_0056.jpg 1 482 194 56 56
0048_0045_0009_0083_0083.jpg 1 45 9 83 83
0049_0078_0064_0064_0064.jpg 1 78 64 64 64
0050_0187_0266_0116_0116.jpg 1 187 266 116 116
