0001_0105_0195_0200_0200.jpg 1 105 195 200 200
0002_0340_0200_0235_0235.jpg 1 340 200 235 235
0003_0058_0070_0072_0072.jpg 1 58 70 72 72
0004_0147_0215_0072_0072.jpg 1 147 215 72 72
0005_0107_0114_0104_0104.jpg 1 107 114 104 104
0006_0362_0361_0078_0078.jpg 1 362 361 78 78
0007_0365_0056_0219_0219.jpg 1 365 56 219 219
0008_0167_0071_0123_0123.jpg 1 167 71 123 123
0009_0059_0338_0074_0074.jpg 1 59 338 74 74
0010_0071_0071_0102_0102.jpg 1 71 71 102 102
0011_0224_0150_0177_0177.jpg 1 224 150 177 177
0012_0144_0112_0102_0102.jpg 1 144 112 102 102
0013_0145_0093_0073_0073.jpg 1 145 93 73 73
0014_0303_0156_0299_0299.jpg 1 303 156 299 299
0015_0318_0105_0209_0209.jpg 1 318 105 209 209
0016_0125_0039_0079_0079.jpg 1 125 39 79 79
0017_0084_0059_0075_0075.jpg 1 84 59 75 75
0018_0046_0075_0095_0095.jpg 1 46 75 95 95
0019_0305_0019_0286_0286.jpg 1 305 19 286 286
0020_0086_0112_0095_0095.jpg 1 86 112 95 95
0021_0234_0065_0076_0076.jpg 1 234 65 76 76
0022_0133_0146_0234_0234.jpg 1 133 146 234 234
0023_0045_0182_0325_0325.jpg 1 45 182 325 325
0024_0171_0044_0276_0276.jpg 1 171 44 276 276
0025_0108_0026_0076_0076.jpg 1 108 26 76 76
0026_0067_0124_0324_0324.jpg 1 67 124 324 324
0027_0114_0269_0135_0135.jpg 1 114 269 135 135
0028_0078_0095_0085_0085.jpg 1 78 95 85 85
0029_0315_0130_0186_0186.jpg 1 315 130 186 186
0030_0252_0025_0256_0256.jpg 1 252 25 256 256
0031_0090_0303_0115_0115.jpg 1 90 303 115 115
0032_0090_0019_0146_0146.jpg 1 90 19 146 146
0033_0105_0083_0049_0049.jpg 1 105 83 49 49
0034_0116_0116_0055_0055.jpg 1 116 116 55 55
0035_0056_0077_0113_0113.jpg 1 56 77 113 113
0036_0362_0147_0123_0123.jpg 1 362 147 123 123
0037_0022_0036_0112_0112.jpg 1 22 36 112 112
0038_0232_0077_0053_0053.jpg 1 232 77 53 53
0039_0203_0084_0266_0266.jpg 1 203 84 266 266
0040_0061_0326_0099_0099.jpg 1 61 326 99 99
0041_0075_0077_0096_0096.jpg 1 75 77 96 96
0042_0118_0032_0154_0154.jpg 1 118 32 154 154
0043_0031_0075_0128_0128.jpg 1 31 75 128 128
0044_0056_0028_0271_0271.jpg 1 56 28 271 271
0045_0184_0292_0122_0122.jpg 1 184 292 122 122
0046_0090_0120_0295_0295.jpg 1 90 120 295 295
0047_0155_0071_0126_0126.jpg 1 155 71 126 126
0048_0062_0117_0087_0087.jpg 1 62 117 87 87
0049_0080_0087_0066_0066.jpg 1 80 87 66 66
0050_0360_0248_0157_0157.jpg 1 360 248 157 157
