0001_0058_0057_0137_0137.jpg 1 58 57 137 137
0002_0346_0077_0224_0224.jpg 1 346 77 224 224
0003_0153_0056_0258_0258.jpg 1 153 56 258 258
0004_0085_0106_0257_0257.jpg 1 85 106 257 257
0005_0204_0134_0120_0120.jpg 1 204 134 120 120
0006_0064_0012_0129_0129.jpg 1 64 12 129 129
0007_0197_0220_0122_0122.jpg 1 197 220 122 122
0008_0055_0081_0089_0089.jpg 1 55 81 89 89
0009_0174_0066_0102_0102.jpg 1 174 66 102 102
0010_0330_0166_0131_0131.jpg 1 330 166 131 131
0011_0030_0059_0125_0125.jpg 1 30 59 125 125
0012_0081_0059_0146_0146.jpg 1 81 59 146 146
0013_0034_0107_0092_0092.jpg 1 34 107 92 92
0014_0140_0233_0217_0217.jpg 1 140 233 217 217
0015_0168_0161_0216_0216.jpg 1 168 161 216 216
0016_0206_0070_0085_0085.jpg 1 206 70 85 85
0017_0439_0323_0093_0093.jpg 1 439 323 93 93
0018_0096_0015_0167_0167.jpg 1 96 15 167 167
0019_0343_0176_0137_0137.jpg 1 343 176 137 137
0020_0061_0068_0110_0110.jpg 1 61 68 110 110
0021_0008_0098_0104_0104.jpg 1 8 98 104 104
0022_0225_0168_0279_0279.jpg 1 225 168 279 279
0023_0144_0118_0284_0284.jpg 1 144 118 284 284
0024_0057_0048_0078_0078.jpg 1 57 48 78 78
0025_0014_0034_0122_0122.jpg 1 14 34 122 122
0026_0251_0103_0094_0094.jpg 1 251 103 94 94
0027_0014_0095_0054_0054.jpg 1 14 95 54 54
0028_0016_0030_0078_0078.jpg 1 16 30 78 78
0029_0087_0065_0126_0126.jpg 1 87 65 126 126
0030_0238_0174_0220_0220.jpg 1 238 174 220 220
0031_0112_0208_0153_0153.jpg 1 112 208 153 153
0032_0097_0026_0062_0062.jpg 1 97 26 62 62
0033_0018_0148_0321_0321.jpg 1 18 148 321 321
0034_0169_0140_0306_0306.jpg 1 169 140 306 306
0035_0290_0121_0270_0270.jpg 1 290 121 270 270
0036_0053_0037_0110_0110.jpg 1 53 37 110 110
0037_0421_0208_0075_0075.jpg 1 421 208 75 75
0038_0063_0043_0063_0063.jpg 1 63 43 63 63
0039_0343_0045_0215_0215.jpg 1 343 45 215 215
0040_0325_0156_0200_0200.jpg 1 325 156 200 200
0041_0025_0118_0095_0095.jpg 1 25 118 95 95
0042_0163_0066_0199_0199.jpg 1 163 66 199 199
0043_0184_0066_0270_0270.jpg 1 184 66 270 270
0044_0167_0021_0330_0330.jpg 1 167 21 330 330
0045_0257_0167_0130_0130.jpg 1 257 167 130 130
0046_0038_0086_0065_0065.jpg 1 38 86 65 65
0047_0128_0075_0175_0175.jpg 1 128 75 175 175
0048_0097_0094_0335_0335.jpg 1 97 94 335 335
0049_0301_0084_0244_0244.jpg 1 301 84 244 244
0050_0187_0026_0054_0054.jpg 1 187 26 54 54
