0001_0025_0022_0123_0123.jpg 1 25 22 123 123
0002_0151_0032_0113_0113.jpg 1 151 32 113 113
0003_0200_0038_0086_0086.jpg 1 200 38 86 86
0004_0114_0092_0079_0079.jpg 1 114 92 79 79
0005_0056_0059_0262_0262.jpg 1 56 59 262 262
0006_0173_0027_0098_0098.jpg 1 173 27 98 98
0007_0056_0051_0297_0297.jpg 1 56 51 297 297
0008_0042_0033_0084_0084.jpg 1 42 33 84 84
0009_0057_0182_0190_0190.jpg 1 57 182 190 190
0010_0357_0230_0215_0215.jpg 1 357 230 215 215
0011_0465_0113_0090_0090.jpg 1 465 113 90 90
0012_0174_0100_0124_0124.jpg 1 174 100 124 124
0013_0261_0351_0074_0074.jpg 1 261 351 74 74
0014_0090_0090_0053_0053.jpg 1 90 90 53 53
0015_0379_0060_0086_0086.jpg 1 379 60 86 86
0016_0138_0057_0122_0122.jpg 1 138 57 122 122
0017_0175_0072_0125_0125.jpg 1 175 72 125 125
0018_0019_0089_0136_0136.jpg 1 19 89 136 136
0019_0284_0124_0211_0211.jpg 1 284 124 211 211
0020_0244_0165_0095_0095.jpg 1 244 165 95 95
0021_0138_0032_0088_0088.jpg 1 138 32 88 88
0022_0060_0024_0146_0146.jpg 1 60 24 146 146
0023_0231_0110_0049_0049.jpg 1 231 110 49 49
0024_0109_0017_0132_0132.jpg 1 109 17 132 132
0025_0193_0035_0048_0048.jpg 1 193 35 48 48
0026_0043_0039_0060_0060.jpg 1 43 39 60 60
0027_0092_0087_0075_0075.jpg 1 92 87 75 75
0028_0077_0037_0082_0082.jpg 1 77 37 82 82
0029_0047_0165_0283_0283.jpg 1 47 165 283 283
0030_0141_0120_0316_0316.jpg 1 141 120 316 316
0031_0200_0051_0094_0094.jpg 1 200 51 94 94
0032_0065_0134_0051_0051.jpg 1 65 134 51 51
0033_0025_0100_0086_0086.jpg 1 25 100 86 86
0034_0254_0031_0291_0291.jpg 1 254 31 291 291
0035_0041_0052_0320_0320.jpg 1 41 52 320 320
0036_0287_0167_0091_0091.jpg 1 287 167 91 91
0037_0172_0101_0167_0167.jpg 1 172 101 167 167
0038_0066_0045_0078_0078.jpg 1 66 45 78 78
0039_0165_0109_0323_0323.jpg 1 165 109 323 323
0040_0096_0122_0309_0309.jpg 1 96 122 309 309
0041_0305_0195_0070_0070.jpg 1 305 195 70 70
0042_0050_0051_0090_0090.jpg 1 50 51 90 90
0043_0086_0087_0079_0079.jpg 1 86 87 79 79
0044_0042_0111_0074_0074.jpg 1 42 111 74 74
0045_0028_0090_0131_0131.jpg 1 28 90 131 131
0046_0024_0014_0157_0157.jpg 1 24 14 157 157
0047_0103_0030_0113_0113.jpg 1 103 30 113 113
0048_0342_0331_0105_0105.jpg 1 342 331 105 105
0049_0093_0078_0241_0241.jpg 1 93 78 241 241
0050_0026_0118_0096_0096.jpg 1 26 118 96 96
