0001_0089_0050_0117_0117.jpg 1 89 50 117 117
0002_0127_0017_0110_0110.jpg 1 127 17 110 110
0003_0035_0053_0138_0138.jpg 1 35 53 138 138
0004_0136_0135_0068_0068.jpg 1 136 135 68 68
0005_0393_0134_0129_0129.jpg 1 393 134 129 129
0006_0010_0066_0120_0120.jpg 1 10 66 120 120
0007_0125_0103_0106_0106.jpg 1 125 103 106 106
0008_0075_0057_0125_0125.jpg 1 75 57 125 125
0009_0064_0021_0218_0218.jpg 1 64 21 218 218
0010_0166_0201_0150_0150.jpg 1 166 201 150 150
0011_0176_0031_0094_0094.jpg 1 176 31 94 94
0012_0120_0018_0088_0088.jpg 1 120 18 88 88
0013_0105_0049_0124_0124.jpg 1 105 49 124 124
0014_0194_0181_0079_0079.jpg 1 194 181 79 79
0015_0374_0181_0183_0183.jpg 1 374 181 183 183
0016_0092_0064_0067_0067.jpg 1 92 64 67 67
0017_0200_0065_0075_0075.jpg 1 200 65 75 75
0018_0435_0047_0122_0122.jpg 1 435 47 122 122
0019_0076_0155_0060_0060.jpg 1 76 155 60 60
0020_0088_0053_0324_0324.jpg 1 88 53 324 324
0021_0020_0134_0086_0086.jpg 1 20 134 86 86
0022_0187_0027_0324_0324.jpg 1 187 27 324 324
0023_0326_0052_0177_0177.jpg 1 326 52 177 177
0024_0026_0071_0069_0069.jpg 1 26 71 69 69
0025_0052_0058_0132_0132.jpg 1 52 58 132 132
0026_0046_0058_0155_0155.jpg 1 46 58 155 155
0027_0181_0319_0186_0186.jpg 1 181 319 186 186
0028_0158_0148_0252_0252.jpg 1 158 148 252 252
0029_0042_0197_0322_0322.jpg 1 42 197 322 322
0030_0048_0024_0116_0116.jpg 1 48 24 116 116
0031_0051_0079_0108_0108.jpg 1 51 79 108 108
0032_0179_0261_0165_0165.jpg 1 179 261 165 165
0033_0247_0170_0210_0210.jpg 1 247 170 210 210
0034_0171_0076_0298_0298.jpg 1 171 76 298 298
0035_0231_0267_0177_0177.jpg 1 231 267 177 177
0036_0110_0056_0229_0229.jpg 1 110 56 229 229
0037_0046_0056_0050_0050.jpg 1 46 56 50 50
0038_0091_0032_0104_0104.jpg 1 91 32 104 104
0039_0348_0112_0214_0214.jpg 1 348 112 214 214
0040_0253_0151_0208_0208.jpg 1 253 151 208 208
0041_0243_0249_0182_0182.jpg 1 243 249 182 182
0042_0155_0168_0050_0050.jpg 1 155 168 50 50
0043_0059_0026_0108_0108.jpg 1 59 26 108 108
0044_0128_0138_0278_0278.jpg 1 128 138 278 278
0045_0046_0104_0062_0062.jpg 1 46 104 62 62
0046_0026_0032_0116_0116.jpg 1 26 32 116 116
0047_0124_0076_0079_0079.jpg 1 124 76 79 79
0048_0092_0061_0121_0121.jpg 1 92 61 121 121
0049_0404_0126_0079_0079.jpg 1 404 126 79 79
0050_0291_0202_0082_0082.jpg 1 291 202 82 82
