0001_0129_0051_0088_0088.jpg 1 129 51 88 88
0002_0017_0036_0067_0067.jpg 1 17 36 67 67
0003_0185_0011_0060_0060.jpg 1 185 11 60 60
0004_0115_0053_0325_0325.jpg 1 115 53 325 325
0005_0215_0200_0253_0253.jpg 1 215 200 253 253
0006_0230_0150_0116_0116.jpg 1 230 150 116 116
0007_0034_0151_0067_0067.jpg 1 34 151 67 67
0008_0262_0099_0231_0231.jpg 1 262 99 231 231
0009_0103_0257_0099_0099.jpg 1 103 257 99 99
0010_0043_0039_0078_0078.jpg 1 43 39 78 78
0011_0111_0081_0130_0130.jpg 1 111 81 130 130
0012_0088_0073_0127_0127.jpg 1 88 73 127 127
0013_0096_0066_0127_0127.jpg 1 96 66 127 127
0014_0306_0242_0194_0194.jpg 1 306 242 194 194
0015_0186_0013_0105_0105.jpg 1 186 13 105 105
0016_0064_0037_0058_0058.jpg 1 64 37 58 58
0017_0043_0026_0259_0259.jpg 1 43 26 259 259
0018_0249_0242_0065_0065.jpg 1 249 242 65 65
0019_0129_0010_0120_0120.jpg 1 129 10 120 120
0020_0113_0121_0315_0315.jpg 1 113 121 315 315
0021_0132_0044_0050_0050.jpg 1 132 44 50 50
0022_0051_0099_0073_0073.jpg 1 51 99 73 73
0023_0035_0022_0100_0100.jpg 1 35 22 100 100
0024_0081_0103_0084_0084.jpg 1 81 103 84 84
0025_0201_0195_0238_0238.jpg 1 201 195 238 238
0026_0242_0212_0122_0122.jpg 1 242 212 122 122
0027_0044_0065_0242_0242.jpg 1 44 65 242 242
0028_0101_0086_0270_0270.jpg 1 101 86 270 270
0029_0028_0045_0152_0152.jpg 1 28 45 152 152
0030_0032_0118_0102_0102.jpg 1 32 118 102 102
0031_0105_0060_0321_0321.jpg 1 105 60 321 321
0032_0134_0025_0147_0147.jpg 1 134 25 147 147
0033_0089_0076_0265_0265.jpg 1 89 76 265 265
0034_0055_0083_0074_0074.jpg 1 55 83 74 74
0035_0178_0243_0193_0193.jpg 1 178 243 193 193
0036_0060_0041_0101_0101.jpg 1 60 41 101 101
0037_0469_0205_0110_0110.jpg 1 469 205 110 110
0038_0330_0183_0081_0081.jpg 1 330 183 81 81
0039_0091_0105_0074_0074.jpg 1 91 105 74 74
0040_0337_0053_0248_0248.jpg 1 337 53 248 248
0041_0046_0122_0060_0060.jpg 1 46 122 60 60
0042_0368_0030_0188_0188.jpg 1 368 30 188 188
0043_0059_0035_0063_0063.jpg 1 59 35 63 63
0044_0375_0242_0188_0188.jpg 1 375 242 188 188
0045_0039_0250_0251_0251.jpg 1 39 250 251 251
0046_0342_0188_0215_0215.jpg 1 342 188 215 215
0047_0048_0009_0145_0145.jpg 1 48 9 145 145
0048_0125_0084_0086_0086.jpg 1 125 84 86 86
0049_0119_0048_0146_0146.jpg 1 119 48 146 146
0050_0169_0043_0271_0271.jpg 1 169 43 271 271
