0001_0265_0034_0306_0306.jpg 1 265 34 306 306
0002_0053_0054_0143_0143.jpg 1 53 54 143 143
0003_0263_0288_0069_0069.jpg 1 263 288 69 69
0004_0029_0084_0117_0117.jpg 1 29 84 117 117
0005_0118_0036_0049_0049.jpg 1 118 36 49 49
0006_0174_0091_0087_0087.jpg 1 174 91 87 87
0007_0075_0029_0127_0127.jpg 1 75 29 127 127
0008_0134_0298_0108_0108.jpg 1 134 298 108 108
0009_0084_0267_0175_0175.jpg 1 84 267 175 175
0010_0319_0171_0055_0055.jpg 1 319 171 55 55
0011_0186_0057_0108_0108.jpg 1 186 57 108 108
0012_0102_0021_0118_0118.jpg 1 102 21 118 118
0013_0105_0118_0050_0050.jpg 1 105 118 50 50
0014_0490_0243_0093_0093.jpg 1 490 243 93 93
0015_0034_0032_0125_0125.jpg 1 34 32 125 125
0016_0047_0033_0134_0134.jpg 1 47 33 134 134
0017_0125_0068_0114_0114.jpg 1 125 68 114 114
0018_0158_0162_0058_0058.jpg 1 158 162 58 58
0019_0096_0011_0160_0160.jpg 1 96 11 160 160
0020_0068_0047_0115_0115.jpg 1 68 47 115 115
0021_0414_0135_0057_0057.jpg 1 414 135 57 57
0022_0131_0081_0088_0088.jpg 1 131 81 88 88
0023_0106_0128_0304_0304.jpg 1 106 128 304 304
0024_0024_0026_0096_0096.jpg 1 24 26 96 96
0025_0216_0363_0077_0077.jpg 1 216 363 77 77
0026_0238_0071_0335_0335.jpg 1 238 71 335 335
0027_0268_0228_0138_0138.jpg 1 268 228 138 138
0028_0352_0047_0209_0209.jpg 1 352 47 209 209
0029_0140_0037_0098_0098.jpg 1 140 37 98 98
0030_0022_0014_0124_0124.jpg 1 22 14 124 124
0031_0088_0097_0077_0077.jpg 1 88 97 77 77
0032_0036_0038_0133_0133.jpg 1 36 38 133 133
0033_0221_0059_0122_0122.jpg 1 221 59 122 122
0034_0175_0131_0051_0051.jpg 1 175 131 51 51
0035_0234_0048_0290_0290.jpg 1 234 48 290 290
0036_0211_0044_0230_0230.jpg 1 211 44 230 230
0037_0058_0107_0080_0080.jpg 1 58 107 80 80
0038_0156_0219_0116_0116.jpg 1 156 219 116 116
0039_0268_0052_0202_0202.jpg 1 268 52 202 202
0040_0165_0054_0104_0104.jpg 1 165 54 104 104
0041_0172_0092_0093_0093.jpg 1 172 92 93 93
0042_0154_0102_0073_0073.jpg 1 154 102 73 73
0043_0126_0078_0079_0079.jpg 1 126 78 79 79
0044_0129_0086_0079_0079.jpg 1 129 86 79 79
0045_0041_0028_0117_0117.jpg 1 41 28 117 117
0046_0309_0117_0296_0296.jpg 1 309 117 296 296
0047_0102_0066_0061_0061.jpg 1 102 66 61 61
0048_0026_0031_0081_0081.jpg 1 26 31 81 81
0049_0045_0062_0121_0121.jpg 1 45 62 121 121
0050_0152_0043_0311_0311.jpg 1 152 43 311 311
