0001_0029_0048_0130_0130.jpg 1 29 48 130 130
0002_0137_0252_0303_0303.jpg 1 137 252 303 303
0003_0285_0236_0156_0156.jpg 1 285 236 156 156
0004_0207_0208_0173_0173.jpg 1 207 208 173 173
0005_0063_0022_0145_0145.jpg 1 63 22 145 145
0006_0106_0030_0109_0109.jpg 1 106 30 109 109
0007_0270_0069_0170_0170.jpg 1 270 69 170 170
0008_0137_0043_0118_0118.jpg 1 137 43 118 118
0009_0062_0025_0057_0057.jpg 1 62 25 57 57
0010_0146_0102_0073_0073.jpg 1 146 102 73 73
0011_0028_0141_0053_0053.jpg 1 28 141 53 53
0012_0090_0050_0148_0148.jpg 1 90 50 148 148
0013_0179_0031_0163_0163.jpg 1 179 31 163 163
0014_0150_0140_0272_0272.jpg 1 150 140 272 272
0015_0024_0088_0089_0089.jpg 1 24 88 89 89
0016_0103_0077_0120_0120.jpg 1 103 77 120 120
0017_0041_0085_0075_0075.jpg 1 41 85 75 75
0018_0286_0157_0287_0287.jpg 1 286 157 287 287
0019_0141_0079_0132_0132.jpg 1 141 79 132 132
0020_0382_0106_0114_0114.jpg 1 382 106 114 114
0021_0412_0150_0154_0154.jpg 1 412 150 154 154
0022_0070_0083_0271_0271.jpg 1 70 83 271 271
0023_0118_0022_0071_0071.jpg 1 118 22 71 71
0024_0091_0019_0151_0151.jpg 1 91 19 151 151
0025_0168_0082_0094_0094.jpg 1 168 82 94 94
0026_0169_0126_0328_0328.jpg 1 169 126 328 328
0027_0208_0098_0292_0292.jpg 1 208 98 292 292
0028_0339_0188_0203_0203.jpg 1 339 188 203 203
0029_0044_0090_0126_0126.jpg 1 44 90 126 126
0030_0019_0027_0102_0102.jpg 1 19 27 102 102
0031_0034_0113_0091_0091.jpg 1 34 113 91 91
0032_0298_0088_0237_0237.jpg 1 298 88 237 237
0033_0118_0412_0062_0062.jpg 1 118 412 62 62
0034_0033_0045_0131_0131.jpg 1 33 45 131 131
0035_0380_0120_0212_0212.jpg 1 380 120 212 212
0036_0105_0119_0098_0098.jpg 1 105 119 98 98
0037_0132_0218_0303_0303.jpg 1 132 218 303 303
0038_0038_0058_0290_0290.jpg 1 38 58 290 290
0039_0007_0076_0138_0138.jpg 1 7 76 138 138
0040_0182_0210_0173_0173.jpg 1 182 210 173 173
0041_0142_0096_0111_0111.jpg 1 142 96 111 111
0042_0203_0136_0212_0212.jpg 1 203 136 212 212
0043_0061_0096_0067_0067.jpg 1 61 96 67 67
0044_0045_0033_0285_0285.jpg 1 45 33 285 285
0045_0136_0027_0111_0111.jpg 1 136 27 111 111
0046_0064_0086_0099_0099.jpg 1 64 86 99 99
0047_0081_0117_0064_0064.jpg 1 81 117 64 64
0048_0331_0121_0078_0078.jpg 1 331 121 78 78
0049_0050_0045_0143_0143.jpg 1 50 45 143 143
0050_0147_0036_0274_0274.jpg 1 147 36 274 274
