0001_0028_0103_0054_0054.jpg 1 28 103 54 54
0002_0042_0149_0240_0240.jpg 1 42 149 240 240
0003_0029_0125_0069_0069.jpg 1 29 125 69 69
0004_0055_0118_0053_0053.jpg 1 55 118 53 53
0005_0023_0040_0131_0131.jpg 1 23 40 131 131
0006_0115_0109_0051_0051.jpg 1 115 109 51 51
0007_0297_0178_0068_0068.jpg 1 297 178 68 68
0008_0024_0057_0101_0101.jpg 1 24 57 101 101
0009_0057_0048_0135_0135.jpg 1 57 48 135 135
0010_0340_0172_0175_0175.jpg 1 340 172 175 175
0011_0261_0055_0182_0182.jpg 1 261 55 182 182
0012_0118_0190_0191_0191.jpg 1 118 190 191 191
0013_0066_0204_0049_0049.jpg 1 66 204 49 49
0014_0404_0108_0076_0076.jpg 1 404 108 76 76
0015_0051_0058_0137_0137.jpg 1 51 58 137 137
0016_0071_0082_0216_0216.jpg 1 71 82 216 216
0017_0032_0169_0326_0326.jpg 1 32 169 326 326
0018_0145_0118_0094_0094.jpg 1 145 118 94 94
0019_0314_0076_0129_0129.jpg 1 314 76 129 129
0020_0152_0163_0182_0182.jpg 1 152 163 182 182
0021_0115_0165_0121_0121.jpg 1 115 165 121 121
0022_0038_0047_0276_0276.jpg 1 38 47 276 276
0023_0050_0116_0308_0308.jpg 1 50 116 308 308
0024_0034_0196_0200_0200.jpg 1 34 196 200 200
0025_0077_0048_0062_0062.jpg 1 77 48 62 62
0026_0046_0030_0146_0146.jpg 1 46 30 146 146
0027_0039_0094_0100_0100.jpg 1 39 94 100 100
0028_0295_0139_0108_0108.jpg 1 295 139 108 108
0029_0082_0122_0089_0089.jpg 1 82 122 89 89
0030_0262_0133_0321_0321.jpg 1 262 133 321 321
0031_0142_0059_0092_0092.jpg 1 142 59 92 92
0032_0097_0078_0054_0054.jpg 1 97 78 54 54
0033_0294_0044_0305_0305.jpg 1 294 44 305 305
0034_0470_0283_0077_0077.jpg 1 470 283 77 77
0035_0202_0040_0246_0246.jpg 1 202 40 246 246
0036_0228_0028_0052_0052.jpg 1 228 28 52 52
0037_0202_0036_0305_0305.jpg 1 202 36 305 305
0038_0059_0019_0155_0155.jpg 1 59 19 155 155
0039_0137_0157_0296_0296.jpg 1 137 157 296 296
0040_0266_0099_0223_0223.jpg 1 266 99 223 223
0041_0067_0097_0069_0069.jpg 1 67 97 69 69
0042_0018_0079_0101_0101.jpg 1 18 79 101 101
0043_0192_0031_0334_0334.jpg 1 192 31 334 334
0044_0049_0102_0109_0109.jpg 1 49 102 109 109
0045_0033_0040_0126_0126.jpg 1 33 40 126 126
0046_0346_0371_0092_0092.jpg 1 346 371 92 92
0047_0317_0154_0076_0076.jpg 1 317 154 76 76
0048_0266_0039_0258_0258.jpg 1 266 39 258 258
0049_0075_0156_0192_0192.jpg 1 75 156 192 192
0050_0117_0137_0054_0054.jpg 1 117 137 54 54
