0001_0166_0121_0091_0091.jpg 1 166 121 91 91
0002_0111_0076_0140_0140.jpg 1 111 76 140 140
0003_0047_0121_0072_0072.jpg 1 47 121 72 72
0004_0067_0039_0158_0158.jpg 1 67 39 158 158
0005_0206_0163_0089_0089.jpg 1 206 163 89 89
0006_0044_0065_0057_0057.jpg 1 44 65 57 57
0007_0077_0064_0332_0332.jpg 1 77 64 332 332
0008_0089_0153_0288_0288.jpg 1 89 153 288 288
0009_0189_0158_0246_0246.jpg 1 189 158 246 246
0010_0033_0075_0128_0128.jpg 1 33 75 128 128
0011_0098_0026_0101_0101.jpg 1 98 26 101 101
0012_0215_0062_0245_0245.jpg 1 215 62 245 245
0013_0251_0259_0178_0178.jpg 1 251 259 178 178
0014_0256_0074_0326_0326.jpg 1 256 74 326 326
0015_0026_0018_0096_0096.jpg 1 26 18 96 96
0016_0126_0178_0258_0258.jpg 1 126 178 258 258
0017_0099_0116_0106_0106.jpg 1 99 116 106 106
0018_0221_0071_0070_0070.jpg 1 221 71 70 70
0019_0032_0132_0061_0061.jpg 1 32 132 61 61
0020_0373_0153_0198_0198.jpg 1 373 153 198 198
0021_0083_0215_0117_0117.jpg 1 83 215 117 117
0022_0428_0052_0077_0077.jpg 1 428 52 77 77
0023_0480_0298_0072_0072.jpg 1 480 298 72 72
0024_0225_0090_0235_0235.jpg 1 225 90 235 235
0025_0082_0206_0099_0099.jpg 1 82 206 99 99
0026_0079_0023_0088_0088.jpg 1 79 23 88 88
0027_0051_0073_0150_0150.jpg 1 51 73 150 150
0028_0014_0015_0152_0152.jpg 1 14 15 152 152
0029_0366_0062_0226_0226.jpg 1 366 62 226 226
0030_0275_0272_0110_0110.jpg 1 275 272 110 110
0031_0294_0074_0058_0058.jpg 1 294 74 58 58
0032_0021_0045_0122_0122.jpg 1 21 45 122 122
0033_0069_0093_0078_0078.jpg 1 69 93 78 78
0034_0076_0330_0195_0195.jpg 1 76 330 195 195
0035_0049_0149_0064_0064.jpg 1 49 149 64 64
0036_0162_0291_0129_0129.jpg 1 162 291 129 129
0037_0149_0277_0110_0110.jpg 1 149 277 110 110
0038_0283_0303_0133_0133.jpg 1 283 303 133 133
0039_0094_0012_0159_0159.jpg 1 94 12 159 159
0040_0270_0033_0333_0333.jpg 1 270 33 333 333
0041_0115_0401_0165_0165.jpg 1 115 401 165 165
0042_0046_0179_0253_0253.jpg 1 46 179 253 253
0043_0527_0266_0050_0050.jpg 1 527 266 50 50
0044_0029_0041_0118_0118.jpg 1 29 41 118 118
0045_0221_0156_0226_0226.jpg 1 221 156 226 226
0046_0371_0114_0201_0201.jpg 1 371 114 201 201
0047_0293_0023_0290_0290.jpg 1 293 23 290 290
0048_0115_0158_0223_0223.jpg 1 115 158 223 223
0049_0041_0141_0240_0240.jpg 1 41 141 240 240
0050_0066_0033_0130_0130.jpg 1 66 33 130 130
