0001_0150_0127_0086_0086.jpg 1 150 127 86 86
0002_0274_0200_0200_0200.jpg 1 274 200 200 200
0003_0064_0076_0229_0229.jpg 1 64 76 229 229
0004_0068_0254_0106_0106.jpg 1 68 254 106 106
0005_0214_0079_0114_0114.jpg 1 214 79 114 114
0006_0521_0310_0050_0050.jpg 1 521 310 50 50
0007_0041_0034_0100_0100.jpg 1 41 34 100 100
0008_0278_0079_0223_0223.jpg 1 278 79 223 223
0009_0063_0218_0306_0306.jpg 1 63 218 306 306
0010_0106_0076_0145_0145.jpg 1 106 76 145 145
0011_0122_0350_0086_0086.jpg 1 122 350 86 86
0012_0168_0026_0104_0104.jpg 1 168 26 104 104
0013_0123_0260_0325_0325.jpg 1 123 260 325 325
0014_0149_0206_0115_0115.jpg 1 149 206 115 115
0015_0451_0153_0109_0109.jpg 1 451 153 109 109
0016_0040_0061_0141_0141.jpg 1 40 61 141 141
0017_0076_0117_0206_0206.jpg 1 76 117 206 206
0018_0245_0031_0307_0307.jpg 1 245 31 307 307
0019_0299_0124_0233_0233.jpg 1 299 124 233 233
0020_0303_0074_0194_0194.jpg 1 303 74 194 194
0021_0216_0125_0184_0184.jpg 1 216 125 184 184
0022_0347_0214_0196_0196.jpg 1 347 214 196 196
0023_0039_0311_0210_0210.jpg 1 39 311 210 210
0024_0163_0360_0195_0195.jpg 1 163 360 195 195
0025_0061_0180_0154_0154.jpg 1 61 180 154 154
0026_0153_0034_0110_0110.jpg 1 153 34 110 110
0027_0269_0056_0202_0202.jpg 1 269 56 202 202
0028_0085_0042_0221_0221.jpg 1 85 42 221 221
0029_0061_0131_0236_0236.jpg 1 61 131 236 236
0030_0167_0061_0118_0118.jpg 1 167 61 118 118
0031_0121_0264_0106_0106.jpg 1 121 264 106 106
0032_0148_0053_0093_0093.jpg 1 148 53 93 93
0033_0023_0081_0111_0111.jpg 1 23 81 111 111
0034_0317_0353_0075_0075.jpg 1 317 353 75 75
0035_0044_0109_0069_0069.jpg 1 44 109 69 69
0036_0065_0096_0082_0082.jpg 1 65 96 82 82
0037_0121_0120_0218_0218.jpg 1 121 120 218 218
0038_0071_0063_0051_0051.jpg 1 71 63 51 51
0039_0307_0051_0294_0294.jpg 1 307 51 294 294
0040_0216_0031_0285_0285.jpg 1 216 31 285 285
0041_0260_0059_0276_0276.jpg 1 260 59 276 276
0042_0236_0206_0146_0146.jpg 1 236 206 146 146
0043_0039_0064_0117_0117.jpg 1 39 64 117 117
0044_0014_0153_0068_0068.jpg 1 14 153 68 68
0045_0088_0032_0101_0101.jpg 1 88 32 101 101
0046_0294_0149_0245_0245.jpg 1 294 149 245 245
0047_0172_0079_0210_0210.jpg 1 172 79 210 210
0048_0052_0040_0085_0085.jpg 1 52 40 85 85
0049_0043_0309_0288_0288.jpg 1 43 309 288 288
0050_0174_0365_0050_0050.jpg 1 174 365 50 50
