0001_0040_0088_0136_0136.jpg 1 40 88 136 136
0002_0067_0074_0165_0165.jpg 1 67 74 165 165
0003_0084_0098_0105_0105.jpg 1 84 98 105 105
0004_0254_0093_0314_0314.jpg 1 254 93 314 314
0005_0111_0036_0166_0166.jpg 1 111 36 166 166
0006_0121_0100_0055_0055.jpg 1 121 100 55 55
0007_0310_0124_0206_0206.jpg 1 310 124 206 206
0008_0051_0051_0154_0154.jpg 1 51 51 154 154
0009_0050_0061_0090_0090.jpg 1 50 61 90 90
0010_0046_0021_0050_0050.jpg 1 46 21 50 50
0011_0142_0080_0125_0125.jpg 1 142 80 125 125
0012_0170_0235_0158_0158.jpg 1 170 235 158 158
0013_0064_0109_0083_0083.jpg 1 64 109 83 83
0014_0147_0238_0209_0209.jpg 1 147 238 209 209
0015_0119_0023_0284_0284.jpg 1 119 23 284 284
0016_0132_0110_0294_0294.jpg 1 132 110 294 294
0017_0358_0271_0164_0164.jpg 1 358 271 164 164
0018_0369_0109_0211_0211.jpg 1 369 109 211 211
0019_0245_0110_0211_0211.jpg 1 245 110 211 211
0020_0219_0268_0074_0074.jpg 1 219 268 74 74
0021_0363_0034_0206_0206.jpg 1 363 34 206 206
0022_0152_0032_0133_0133.jpg 1 152 32 133 133
0023_0110_0096_0327_0327.jpg 1 110 96 327 327
0024_0108_0069_0085_0085.jpg 1 108 69 85 85
0025_0491_0089_0092_0092.jpg 1 491 89 92 92
0026_0208_0150_0242_0242.jpg 1 208 150 242 242
0027_0023_0061_0134_0134.jpg 1 23 61 134 134
0028_0102_0219_0199_0199.jpg 1 102 219 199 199
0029_0084_0285_0299_0299.jpg 1 84 285 299 299
0030_0081_0037_0112_0112.jpg 1 81 37 112 112
0031_0145_0083_0119_0119.jpg 1 145 83 119 119
0032_0083_0087_0162_0162.jpg 1 83 87 162 162
0033_0199_0086_0186_0186.jpg 1 199 86 186 186
0034_0310_0082_0247_0247.jpg 1 310 82 247 247
0035_0151_0221_0099_0099.jpg 1 151 221 99 99
0036_0105_0012_0121_0121.jpg 1 105 12 121 121
0037_0122_0077_0116_0116.jpg 1 122 77 116 116
0038_0149_0363_0120_0120.jpg 1 149 363 120 120
0039_0176_0245_0200_0200.jpg 1 176 245 200 200
0040_0086_0039_0079_0079.jpg 1 86 39 79 79
0041_0089_0102_0090_0090.jpg 1 89 102 90 90
0042_0333_0140_0138_0138.jpg 1 333 140 138 138
0043_0190_0082_0079_0079.jpg 1 190 82 79 79
0044_0222_0036_0330_0330.jpg 1 222 36 330 330
0045_0052_0068_0105_0105.jpg 1 52 68 105 105
0046_0119_0339_0203_0203.jpg 1 119 339 203 203
0047_0208_0040_0177_0177.jpg 1 208 40 177 177
0048_0293_0189_0100_0100.jpg 1 293 189 100 100
0049_0047_0086_0117_0117.jpg 1 47 86 117 117
0050_0041_0222_0333_0333.jpg 1 41 222 333 333
