0001_0099_0063_0313_0313.jpg 1 99 63 313 313
0002_0012_0105_0078_0078.jpg 1 12 105 78 78
0003_0218_0164_0230_0230.jpg 1 218 164 230 230
0004_0183_0074_0092_0092.jpg 1 183 74 92 92
0005_0136_0088_0062_0062.jpg 1 136 88 62 62
0006_0145_0077_0126_0126.jpg 1 145 77 126 126
0007_0112_0053_0297_0297.jpg 1 112 53 297 297
0008_0053_0052_0132_0132.jpg 1 53 52 132 132
0009_0264_0156_0299_0299.jpg 1 264 156 299 299
0010_0048_0094_0274_0274.jpg 1 48 94 274 274
0011_0140_0136_0321_0321.jpg 1 140 136 321 321
0012_0184_0109_0112_0112.jpg 1 184 109 112 112
0013_0045_0123_0086_0086.jpg 1 45 123 86 86
0014_0159_0145_0077_0077.jpg 1 159 145 77 77
0015_0013_0026_0096_0096.jpg 1 13 26 96 96
0016_0107_0233_0126_0126.jpg 1 107 233 126 126
0017_0118_0057_0085_0085.jpg 1 118 57 85 85
0018_0022_0028_0148_0148.jpg 1 22 28 148 148
0019_0371_0263_0140_0140.jpg 1 371 263 140 140
0020_0438_0159_0064_0064.jpg 1 438 159 64 64
0021_0313_0156_0101_0101.jpg 1 313 156 101 101
0022_0065_0255_0114_0114.jpg 1 65 255 114 114
0023_0079_0048_0056_0056.jpg 1 79 48 56 56
0024_0066_0287_0305_0305.jpg 1 66 287 305 305
0025_0141_0230_0066_0066.jpg 1 141 230 66 66
0026_0331_0095_0070_0070.jpg 1 331 95 70 70
0027_0051_0029_0135_0135.jpg 1 51 29 135 135
0028_0303_0087_0283_0283.jpg 1 303 87 283 283
0029_0061_0094_0113_0113.jpg 1 61 94 113 113
0030_0381_0052_0179_0179.jpg 1 381 52 179 179
0031_0009_0021_0054_0054.jpg 1 9 21 54 54
0032_0038_0080_0100_0100.jpg 1 38 80 100 100
0033_0217_0120_0252_0252.jpg 1 217 120 252 252
0034_0095_0025_0155_0155.jpg 1 95 25 155 155
0035_0073_0112_0270_0270.jpg 1 73 112 270 270
0036_0055_0028_0147_0147.jpg 1 55 28 147 147
0037_0027_0052_0166_0166.jpg 1 27 52 166 166
0038_0132_0082_0242_0242.jpg 1 132 82 242 242
0039_0333_0184_0147_0147.jpg 1 333 184 147 147
0040_0315_0215_0226_0226.jpg 1 315 215 226 226
0041_0173_0173_0205_0205.jpg 1 173 173 205 205
0042_0153_0237_0123_0123.jpg 1 153 237 123 123
0043_0160_0093_0062_0062.jpg 1 160 93 62 62
0044_0267_0396_0110_0110.jpg 1 267 396 110 110
0045_0098_0084_0307_0307.jpg 1 98 84 307 307
0046_0274_0182_0085_0085.jpg 1 274 182 85 85
0047_0115_0219_0174_0174.jpg 1 115 219 174 174
0048_0015_0115_0083_0083.jpg 1 15 115 83 83
0049_0148_0397_0181_0181.jpg 1 148 397 181 181
0050_0023_0046_0111_0111.jpg 1 23 46 111 111
