0001_0028_0099_0066_0066.jpg 1 28 99 66 66
0002_0230_0039_0328_0328.jpg 1 230 39 328 328
0003_0167_0082_0128_0128.jpg 1 167 82 128 128
0004_0305_0077_0265_0265.jpg 1 305 77 265 265
0005_0209_0301_0176_0176.jpg 1 209 301 176 176
0006_0353_0113_0096_0096.jpg 1 353 113 96 96
0007_0025_0051_0142_0142.jpg 1 25 51 142 142
0008_0120_0071_0314_0314.jpg 1 120 71 314 314
0009_0066_0231_0085_0085.jpg 1 66 231 85 85
0010_0150_0045_0130_0130.jpg 1 150 45 130 130
0011_0112_0055_0079_0079.jpg 1 112 55 79 79
0012_0089_0028_0083_0083.jpg 1 89 28 83 83
0013_0175_0083_0297_0297.jpg 1 175 83 297 297
0014_0127_0010_0148_0148.jpg 1 127 10 148 148
0015_0180_0082_0090_0090.jpg 1 180 82 90 90
0016_0019_0023_0121_0121.jpg 1 19 23 121 121
0017_0151_0197_0231_0231.jpg 1 151 197 231 231
0018_0111_0259_0294_0294.jpg 1 111 259 294 294
0019_0093_0032_0055_0055.jpg 1 93 32 55 55
0020_0088_0044_0083_0083.jpg 1 88 44 83 83
0021_0133_0040_0152_0152.jpg 1 133 40 152 152
0022_0126_0257_0052_0052.jpg 1 126 257 52 52
0023_0317_0058_0283_0283.jpg 1 317 58 283 283
0024_0081_0061_0152_0152.jpg 1 81 61 152 152
0025_0079_0057_0178_0178.jpg 1 79 57 178 178
0026_0036_0014_0102_0102.jpg 1 36 14 102 102
0027_0156_0130_0062_0062.jpg 1 156 130 62 62
0028_0142_0056_0140_0140.jpg 1 142 56 140 140
0029_0110_0021_0164_0164.jpg 1 110 21 164 164
0030_0177_0044_0191_0191.jpg 1 177 44 191 191
0031_0194_0045_0092_0092.jpg 1 194 45 92 92
0032_0326_0323_0068_0068.jpg 1 326 323 68 68
0033_0113_0024_0086_0086.jpg 1 113 24 86 86
0034_0140_0014_0126_0126.jpg 1 140 14 126 126
0035_0269_0025_0253_0253.jpg 1 269 25 253 253
0036_0296_0125_0231_0231.jpg 1 296 125 231 231
0037_0075_0033_0313_0313.jpg 1 75 33 313 313
0038_0114_0095_0092_0092.jpg 1 114 95 92 92
0039_0303_0144_0093_0093.jpg 1 303 144 93 93
0040_0093_0056_0099_0099.jpg 1 93 56 99 99
0041_0033_0123_0050_0050.jpg 1 33 123 50 50
0042_0078_0118_0292_0292.jpg 1 78 118 292 292
0043_0171_0098_0127_0127.jpg 1 171 98 127 127
0044_0113_0227_0126_0126.jpg 1 113 227 126 126
0045_0073_0411_0100_0100.jpg 1 73 411 100 100
0046_0070_0044_0328_0328.jpg 1 70 44 328 328
0047_0151_0052_0139_0139.jpg 1 151 52 139 139
0048_0162_0092_0127_0127.jpg 1 162 92 127 127
0049_0062_0124_0065_0065.jpg 1 62 124 65 65
0050_0243_0301_0133_0133.jpg 1 243 301 133 133
