0001_0195_0128_0293_0293.jpg 1 195 128 293 293
0002_0166_0239_0202_0202.jpg 1 166 239 202 202
0003_0279_0037_0271_0271.jpg 1 279 37 271 271
0004_0295_0292_0104_0104.jpg 1 295 292 104 104
0005_0232_0155_0275_0275.jpg 1 232 155 275 275
0006_0203_0119_0090_0090.jpg 1 203 119 90 90
0007_0058_0214_0168_0168.jpg 1 58 214 168 168
0008_0201_0095_0057_0057.jpg 1 201 95 57 57
0009_0044_0132_0246_0246.jpg 1 44 132 246 246
0010_0236_0083_0062_0062.jpg 1 236 83 62 62
0011_0342_0368_0065_0065.jpg 1 342 368 65 65
0012_0173_0064_0295_0295.jpg 1 173 64 295 295
0013_0087_0159_0197_0197.jpg 1 87 159 197 197
0014_0070_0041_0164_0164.jpg 1 70 41 164 164
0015_0258_0267_0177_0177.jpg 1 258 267 177 177
0016_0101_0025_0065_0065.jpg 1 101 25 65 65
0017_0093_0021_0302_0302.jpg 1 93 21 302 302
0018_0442_0240_0146_0146.jpg 1 442 240 146 146
0019_0035_0055_0054_0054.jpg 1 35 55 54 54
0020_0090_0154_0280_0280.jpg 1 90 154 280 280
0021_0386_0037_0179_0179.jpg 1 386 37 179 179
0022_0051_0018_0151_0151.jpg 1 51 18 151 151
0023_0062_0135_0185_0185.jpg 1 62 135 185 185
0024_0167_0059_0318_0318.jpg 1 167 59 318 318
0025_0158_0030_0128_0128.jpg 1 158 30 128 128
0026_0100_0107_0072_0072.jpg 1 100 107 72 72
0027_0249_0243_0086_0086.jpg 1 249 243 86 86
0028_0159_0033_0131_0131.jpg 1 159 33 131 131
0029_0470_0258_0087_0087.jpg 1 470 258 87 87
0030_0153_0057_0102_0102.jpg 1 153 57 102 102
0031_0157_0224_0219_0219.jpg 1 157 224 219 219
0032_0421_0270_0104_0104.jpg 1 421 270 104 104
0033_0211_0053_0212_0212.jpg 1 211 53 212 212
0034_0022_0055_0144_0144.jpg 1 22 55 144 144
0035_0341_0136_0247_0247.jpg 1 341 136 247 247
0036_0316_0055_0223_0223.jpg 1 316 55 223 223
0037_0076_0071_0053_0053.jpg 1 76 71 53 53
0038_0347_0189_0077_0077.jpg 1 347 189 77 77
0039_0247_0107_0259_0259.jpg 1 247 107 259 259
0040_0226_0039_0213_0213.jpg 1 226 39 213 213
0041_0091_0274_0083_0083.jpg 1 91 274 83 83
0042_0144_0182_0173_0173.jpg 1 144 182 173 173
0043_0294_0335_0053_0053.jpg 1 294 335 53 53
0044_0278_0127_0276_0276.jpg 1 278 127 276 276
0045_0131_0266_0145_0145.jpg 1 131 266 145 145
0046_0168_0189_0079_0079.jpg 1 168 189 79 79
0047_0202_0114_0245_0245.jpg 1 202 114 245 245
0048_0152_0115_0081_0081.jpg 1 152 115 81 81
0049_0129_0169_0182_0182.jpg 1 129 169 182 182
0050_0128_0217_0078_0078.jpg 1 128 217 78 78
