0001_0115_0040_0144_0144.jpg 1 115 40 144 144
0002_0216_0032_0275_0275.jpg 1 216 32 275 275
0003_0131_0032_0101_0101.jpg 1 131 32 101 101
0004_0062_0039_0146_0146.jpg 1 62 39 146 146
0005_0152_0030_0093_0093.jpg 1 152 30 93 93
0006_0185_0103_0089_0089.jpg 1 185 103 89 89
0007_0204_0059_0095_0095.jpg 1 204 59 95 95
0008_0121_0051_0177_0177.jpg 1 121 51 177 177
0009_0067_0024_0049_0049.jpg 1 67 24 49 49
0010_0030_0057_0088_0088.jpg 1 30 57 88 88
0011_0119_0021_0103_0103.jpg 1 119 21 103 103
0012_0116_0167_0247_0247.jpg 1 116 167 247 247
0013_0224_0258_0110_0110.jpg 1 224 258 110 110
0014_0244_0198_0146_0146.jpg 1 244 198 146 146
0015_0194_0024_0264_0264.jpg 1 194 24 264 264
0016_0121_0101_0238_0238.jpg 1 121 101 238 238
0017_0025_0068_0107_0107.jpg 1 25 68 107 107
0018_0083_0034_0051_0051.jpg 1 83 34 51 51
0019_0272_0175_0124_0124.jpg 1 272 175 124 124
0020_0097_0245_0154_0154.jpg 1 97 245 154 154
0021_0079_0145_0077_0077.jpg 1 79 145 77 77
0022_0062_0080_0104_0104.jpg 1 62 80 104 104
0023_0380_0185_0190_0190.jpg 1 380 185 190 190
0024_0194_0147_0184_0184.jpg 1 194 147 184 184
0025_0046_0052_0062_0062.jpg 1 46 52 62 62
0026_0065_0186_0311_0311.jpg 1 65 186 311 311
0027_0118_0129_0067_0067.jpg 1 118 129 67 67
0028_0037_0028_0056_0056.jpg 1 37 28 56 56
0029_0134_0038_0110_0110.jpg 1 134 38 110 110
0030_0154_0028_0075_0075.jpg 1 154 28 75 75
0031_0294_0107_0259_0259.jpg 1 294 107 259 259
0032_0097_0073_0061_0061.jpg 1 97 73 61 61
0033_0111_0084_0125_0125.jpg 1 111 84 125 125
0034_0052_0027_0119_0119.jpg 1 52 27 119 119
0035_0066_0018_0304_0304.jpg 1 66 18 304 304
0036_0380_0131_0206_0206.jpg 1 380 131 206 206
0037_0152_0045_0121_0121.jpg 1 152 45 121 121
0038_0382_0310_0094_0094.jpg 1 382 310 94 94
0039_0239_0067_0289_0289.jpg 1 239 67 289 289
0040_0283_0116_0306_0306.jpg 1 283 116 306 306
0041_0327_0277_0170_0170.jpg 1 327 277 170 170
0042_0028_0042_0119_0119.jpg 1 28 42 119 119
0043_0116_0036_0133_0133.jpg 1 116 36 133 133
0044_0149_0083_0304_0304.jpg 1 149 83 304 304
0045_0129_0192_0132_0132.jpg 1 129 192 132 132
0046_0381_0288_0105_0105.jpg 1 381 288 105 105
0047_0221_0152_0058_0058.jpg 1 221 152 58 58
0048_0304_0310_0063_0063.jpg 1 304 310 63 63
0049_0185_0087_0275_0275.jpg 1 185 87 275 275
0050_0089_0484_0082_0082.jpg 1 89 484 82 82
