0001_0313_0156_0206_0206.jpg 1 313 156 206 206
0002_0010_0104_0050_0050.jpg 1 10 104 50 50
0003_0095_0078_0091_0091.jpg 1 95 78 91 91
0004_0235_0076_0050_0050.jpg 1 235 76 50 50
0005_0095_0050_0100_0100.jpg 1 95 50 100 100
0006_0157_0171_0243_0243.jpg 1 157 171 243 243
0007_0033_0062_0111_0111.jpg 1 33 62 111 111
0008_0073_0048_0114_0114.jpg 1 73 48 114 114
0009_0320_0112_0221_0221.jpg 1 320 112 221 221
0010_0170_0047_0066_0066.jpg 1 170 47 66 66
0011_0363_0037_0200_0200.jpg 1 363 37 200 200
0012_0234_0084_0134_0134.jpg 1 234 84 134 134
0013_0216_0086_0194_0194.jpg 1 216 86 194 194
0014_0082_0056_0180_0180.jpg 1 82 56 180 180
0015_0103_0175_0259_0259.jpg 1 103 175 259 259
0016_0081_0029_0116_0116.jpg 1 81 29 116 116
0017_0115_0023_0070_0070.jpg 1 115 23 70 70
0018_0178_0096_0190_0190.jpg 1 178 96 190 190
0019_0063_0142_0053_0053.jpg 1 63 142 53 53
0020_0120_0040_0134_0134.jpg 1 120 40 134 134
0021_0102_0119_0102_0102.jpg 1 102 119 102 102
0022_0065_0129_0133_0133.jpg 1 65 129 133 133
0023_0036_0269_0305_0305.jpg 1 36 269 305 305
0024_0280_0087_0220_0220.jpg 1 280 87 220 220
0025_0367_0140_0140_0140.jpg 1 367 140 140 140
0026_0282_0218_0176_0176.jpg 1 282 218 176 176
0027_0118_0213_0138_0138.jpg 1 118 213 138 138
0028_0079_0011_0129_0129.jpg 1 79 11 129 129
0029_0032_0147_0067_0067.jpg 1 32 147 67 67
0030_0158_0094_0081_0081.jpg 1 158 94 81 81
0031_0154_0083_0115_0115.jpg 1 154 83 115 115
0032_0342_0159_0245_0245.jpg 1 342 159 245 245
0033_0056_0067_0073_0073.jpg 1 56 67 73 73
0034_0214_0105_0255_0255.jpg 1 214 105 255 255
0035_0123_0081_0129_0129.jpg 1 123 81 129 129
0036_0346_0106_0141_0141.jpg 1 346 106 141 141
0037_0103_0042_0183_0183.jpg 1 103 42 183 183
0038_0189_0179_0146_0146.jpg 1 189 179 146 146
0039_0036_0066_0153_0153.jpg 1 36 66 153 153
0040_0426_0147_0128_0128.jpg 1 426 147 128 128
0041_0336_0099_0250_0250.jpg 1 336 99 250 250
0042_0087_0069_0102_0102.jpg 1 87 69 102 102
0043_0093_0080_0229_0229.jpg 1 93 80 229 229
0044_0289_0057_0268_0268.jpg 1 289 57 268 268
0045_0104_0291_0063_0063.jpg 1 104 291 63 63
0046_0093_0113_0054_0054.jpg 1 93 113 54 54
0047_0056_0099_0084_0084.jpg 1 56 99 84 84
0048_0036_0033_0142_0142.jpg 1 36 33 142 142
0049_0161_0213_0132_0132.jpg 1 161 213 132 132
0050_0144_0049_0298_0298.jpg 1 144 49 298 298
