0001_0028_0074_0106_0106.jpg 1 28 74 106 106
0002_0067_0131_0090_0090.jpg 1 67 131 90 90
0003_0017_0020_0097_0097.jpg 1 17 20 97 97
0004_0094_0041_0164_0164.jpg 1 94 41 164 164
0005_0314_0322_0123_0123.jpg 1 314 322 123 123
0006_0107_0229_0225_0225.jpg 1 107 229 225 225
0007_0126_0131_0316_0316.jpg 1 126 131 316 316
0008_0037_0086_0089_0089.jpg 1 37 86 89 89
0009_0032_0011_0167_0167.jpg 1 32 11 167 167
0010_0026_0029_0156_0156.jpg 1 26 29 156 156
0011_0193_0251_0067_0067.jpg 1 193 251 67 67
0012_0178_0168_0244_0244.jpg 1 178 168 244 244
0013_0096_0080_0095_0095.jpg 1 96 80 95 95
0014_0027_0220_0221_0221.jpg 1 27 220 221 221
0015_0218_0123_0161_0161.jpg 1 218 123 161 161
0016_0046_0020_0098_0098.jpg 1 46 20 98 98
0017_0134_0096_0093_0093.jpg 1 134 96 93 93
0018_0088_0228_0059_0059.jpg 1 88 228 59 59
0019_0206_0082_0258_0258.jpg 1 206 82 258 258
0020_0067_0017_0087_0087.jpg 1 67 17 87 87
0021_0057_0103_0117_0117.jpg 1 57 103 117 117
0022_0168_0025_0049_0049.jpg 1 168 25 49 49
0023_0342_0267_0176_0176.jpg 1 342 267 176 176
0024_0281_0243_0168_0168.jpg 1 281 243 168 168
0025_0261_0026_0162_0162.jpg 1 261 26 162 162
0026_0100_0057_0081_0081.jpg 1 100 57 81 81
0027_0158_0143_0230_0230.jpg 1 158 143 230 230
0028_0060_0072_0051_0051.jpg 1 60 72 51 51
0029_0141_0069_0152_0152.jpg 1 141 69 152 152
0030_0171_0026_0262_0262.jpg 1 171 26 262 262
0031_0080_0024_0117_0117.jpg 1 80 24 117 117
0032_0075_0068_0073_0073.jpg 1 75 68 73 73
0033_0197_0162_0237_0237.jpg 1 197 162 237 237
0034_0418_0270_0117_0117.jpg 1 418 270 117 117
0035_0322_0034_0165_0165.jpg 1 322 34 165 165
0036_0120_0038_0086_0086.jpg 1 120 38 86 86
0037_0174_0128_0095_0095.jpg 1 174 128 95 95
0038_0262_0098_0253_0253.jpg 1 262 98 253 253
0039_0036_0058_0092_0092.jpg 1 36 58 92 92
0040_0051_0085_0134_0134.jpg 1 51 85 134 134
0041_0055_0014_0117_0117.jpg 1 55 14 117 117
0042_0351_0135_0247_0247.jpg 1 351 135 247 247
0043_0156_0128_0316_0316.jpg 1 156 128 316 316
0044_0213_0193_0233_0233.jpg 1 213 193 233 233
0045_0257_0149_0176_0176.jpg 1 257 149 176 176
0046_0065_0026_0138_0138.jpg 1 65 26 138 138
0047_0102_0071_0079_0079.jpg 1 102 71 79 79
0048_0014_0072_0081_0081.jpg 1 14 72 81 81
0049_0053_0045_0201_0201.jpg 1 53 45 201 201
0050_0077_0198_0251_0251.jpg 1 77 198 251 251
