0001_0272_0071_0319_0319.jpg 1 272 71 319 319
0002_0065_0055_0088_0088.jpg 1 65 55 88 88
0003_0100_0140_0267_0267.jpg 1 100 140 267 267
0004_0328_0210_0116_0116.jpg 1 328 210 116 116
0005_0114_0107_0108_0108.jpg 1 114 107 108 108
0006_0107_0033_0163_0163.jpg 1 107 33 163 163
0007_0066_0060_0124_0124.jpg 1 66 60 124 124
0008_0285_0118_0089_0089.jpg 1 285 118 89 89
0009_0049_0090_0068_0068.jpg 1 49 90 68 68
0010_0162_0356_0060_0060.jpg 1 162 356 60 60
0011_0070_0025_0241_0241.jpg 1 70 25 241 241
0012_0175_0245_0109_0109.jpg 1 175 245 109 109
0013_0128_0162_0113_0113.jpg 1 128 162 113 113
0014_0034_0023_0066_0066.jpg 1 34 23 66 66
0015_0236_0079_0258_0258.jpg 1 236 79 258 258
0016_0193_0050_0327_0327.jpg 1 193 50 327 327
0017_0132_0037_0263_0263.jpg 1 132 37 263 263
0018_0353_0084_0235_0235.jpg 1 353 84 235 235
0019_0289_0342_0048_0048.jpg 1 289 342 48 48
0020_0165_0116_0098_0098.jpg 1 165 116 98 98
0021_0042_0040_0082_0082.jpg 1 42 40 82 82
0022_0200_0118_0276_0276.jpg 1 200 118 276 276
0023_0234_0119_0050_0050.jpg 1 234 119 50 50
0024_0141_0129_0317_0317.jpg 1 141 129 317 317
0025_0151_0112_0296_0296.jpg 1 151 112 296 296
0026_0030_0086_0099_0099.jpg 1 30 86 99 99
0027_0030_0053_0150_0150.jpg 1 30 53 150 150
0028_0361_0175_0104_0104.jpg 1 361 175 104 104
0029_0020_0055_0120_0120.jpg 1 20 55 120 120
0030_0100_0080_0190_0190.jpg 1 100 80 190 190
0031_0176_0072_0271_0271.jpg 1 176 72 271 271
0032_0042_0085_0079_0079.jpg 1 42 85 79 79
0033_0017_0073_0148_0148.jpg 1 17 73 148 148
0034_0386_0116_0171_0171.jpg 1 386 116 171 171
0035_0056_0124_0092_0092.jpg 1 56 124 92 92
0036_0378_0228_0134_0134.jpg 1 378 228 134 134
0037_0158_0171_0289_0289.jpg 1 158 171 289 289
0038_0044_0076_0280_0280.jpg 1 44 76 280 280
0039_0097_0041_0163_0163.jpg 1 97 41 163 163
0040_0163_0031_0109_0109.jpg 1 163 31 109 109
0041_0015_0032_0064_0064.jpg 1 15 32 64 64
0042_0038_0015_0122_0122.jpg 1 38 15 122 122
0043_0287_0130_0288_0288.jpg 1 287 130 288 288
0044_0138_0119_0053_0053.jpg 1 138 119 53 53
0045_0011_0031_0068_0068.jpg 1 11 31 68 68
0046_0044_0048_0251_0251.jpg 1 44 48 251 251
0047_0179_0038_0120_0120.jpg 1 179 38 120 120
0048_0450_0345_0053_0053.jpg 1 450 345 53 53
0049_0016_0049_0161_0161.jpg 1 16 49 161 161
0050_0251_0061_0191_0191.jpg 1 251 61 191 191
