0001_0045_0091_0105_0105.jpg 1 45 91 105 105
0002_0139_0067_0142_0142.jpg 1 139 67 142 142
0003_0026_0015_0110_0110.jpg 1 26 15 110 110
0004_0088_0068_0111_0111.jpg 1 88 68 111 111
0005_0060_0118_0060_0060.jpg 1 60 118 60 60
0006_0215_0310_0101_0101.jpg 1 215 310 101 101
0007_0226_0130_0320_0320.jpg 1 226 130 320 320
0008_0183_0308_0114_0114.jpg 1 183 308 114 114
0009_0184_0017_0110_0110.jpg 1 184 17 110 110
0010_0121_0193_0213_0213.jpg 1 121 193 213 213
0011_0052_0190_0173_0173.jpg 1 52 190 173 173
0012_0015_0069_0097_0097.jpg 1 15 69 97 97
0013_0191_0221_0128_0128.jpg 1 191 221 128 128
0014_0097_0053_0321_0321.jpg 1 97 53 321 321
0015_0120_0054_0116_0116.jpg 1 120 54 116 116
0016_0236_0328_0100_0100.jpg 1 236 328 100 100
0017_0020_0061_0157_0157.jpg 1 20 61 157 157
0018_0030_0139_0077_0077.jpg 1 30 139 77 77
0019_0208_0140_0279_0279.jpg 1 208 140 279 279
0020_0058_0072_0141_0141.jpg 1 58 72 141 141
0021_0048_0033_0135_0135.jpg 1 48 33 135 135
0022_0148_0025_0102_0102.jpg 1 148 25 102 102
0023_0353_0074_0237_0237.jpg 1 353 74 237 237
0024_0105_0112_0314_0314.jpg 1 105 112 314 314
0025_0048_0116_0100_0100.jpg 1 48 116 100 100
0026_0194_0034_0095_0095.jpg 1 194 34 95 95
0027_0062_0051_0170_0170.jpg 1 62 51 170 170
0028_0035_0133_0088_0088.jpg 1 35 133 88 88
0029_0086_0294_0147_0147.jpg 1 86 294 147 147
0030_0197_0046_0058_0058.jpg 1 197 46 58 58
0031_0148_0041_0059_0059.jpg 1 148 41 59 59
0032_0050_0065_0132_0132.jpg 1 50 65 132 132
0033_0183_0108_0330_0330.jpg 1 183 108 330 330
0034_0081_0102_0056_0056.jpg 1 81 102 56 56
0035_0020_0092_0111_0111.jpg 1 20 92 111 111
0036_0122_0095_0229_0229.jpg 1 122 95 229 229
0037_0049_0046_0114_0114.jpg 1 49 46 114 114
0038_0245_0033_0279_0279.jpg 1 245 33 279 279
0039_0129_0028_0126_0126.jpg 1 129 28 126 126
0040_0102_0267_0112_0112.jpg 1 102 267 112 112
0041_0354_0213_0062_0062.jpg 1 354 213 62 62
0042_0087_0098_0063_0063.jpg 1 87 98 63 63
0043_0139_0199_0187_0187.jpg 1 139 199 187 187
0044_0100_0019_0074_0074.jpg 1 100 19 74 74
0045_0062_0062_0161_0161.jpg 1 62 62 161 161
0046_0026_0031_0150_0150.jpg 1 26 31 150 150
0047_0343_0168_0232_0232.jpg 1 343 168 232 232
0048_0269_0077_0263_0263.jpg 1 269 77 263 263
0049_0219_0449_0111_0111.jpg 1 219 449 111 111
0050_0297_0367_0057_0057.jpg 1 297 367 57 57
