0001_0223_0157_0094_0094.jpg 1 223 157 94 94
0002_0391_0330_0055_0055.jpg 1 391 330 55 55
0003_0483_0211_0096_0096.jpg 1 483 211 96 96
0004_0220_0109_0302_0302.jpg 1 220 109 302 302
0005_0057_0143_0063_0063.jpg 1 57 143 63 63
0006_0019_0118_0068_0068.jpg 1 19 118 68 68
0007_0123_0161_0225_0225.jpg 1 123 161 225 225
0008_0249_0358_0078_0078.jpg 1 249 358 78 78
0009_0359_0073_0051_0051.jpg 1 359 73 51 51
0010_0077_0212_0320_0320.jpg 1 77 212 320 320
0011_0106_0079_0308_0308.jpg 1 106 79 308 308
0012_0464_0148_0089_0089.jpg 1 464 148 89 89
0013_0161_0217_0066_0066.jpg 1 161 217 66 66
0014_0097_0062_0098_0098.jpg 1 97 62 98 98
0015_0280_0157_0301_0301.jpg 1 280 157 301 301
0016_0043_0077_0234_0234.jpg 1 43 77 234 234
0017_0158_0148_0058_0058.jpg 1 158 148 58 58
0018_0226_0116_0300_0300.jpg 1 226 116 300 300
0019_0041_0047_0300_0300.jpg 1 41 47 300 300
0020_0033_0095_0060_0060.jpg 1 33 95 60 60
0021_0064_0026_0140_0140.jpg 1 64 26 140 140
0022_0121_0070_0128_0128.jpg 1 121 70 128 128
0023_0357_0123_0135_0135.jpg 1 357 123 135 135
0024_0175_0038_0066_0066.jpg 1 175 38 66 66
0025_0016_0066_0116_0116.jpg 1 16 66 116 116
0026_0070_0045_0331_0331.jpg 1 70 45 331 331
0027_0296_0091_0256_0256.jpg 1 296 91 256 256
0028_0162_0173_0146_0146.jpg 1 162 173 146 146
0029_0308_0114_0068_0068.jpg 1 308 114 68 68
0030_0376_0166_0170_0170.jpg 1 376 166 170 170
0031_0037_0087_0054_0054.jpg 1 37 87 54 54
0032_0218_0132_0331_0331.jpg 1 218 132 331 331
0033_0111_0131_0076_0076.jpg 1 111 131 76 76
0034_0028_0022_0120_0120.jpg 1 28 22 120 120
0035_0083_0055_0111_0111.jpg 1 83 55 111 111
0036_0029_0049_0161_0161.jpg 1 29 49 161 161
0037_0276_0291_0097_0097.jpg 1 276 291 97 97
0038_0135_0020_0313_0313.jpg 1 135 20 313 313
0039_0145_0165_0128_0128.jpg 1 145 165 128 128
0040_0076_0078_0135_0135.jpg 1 76 78 135 135
0041_0175_0065_0097_0097.jpg 1 175 65 97 97
0042_0093_0238_0131_0131.jpg 1 93 238 131 131
0043_0210_0092_0313_0313.jpg 1 210 92 313 313
0044_0359_0199_0212_0212.jpg 1 359 199 212 212
0045_0167_0041_0083_0083.jpg 1 167 41 83 83
0046_0321_0066_0269_0269.jpg 1 321 66 269 269
0047_0051_0185_0265_0265.jpg 1 51 185 265 265
0048_0330_0207_0216_0216.jpg 1 330 207 216 216
0049_0121_0183_0138_0138.jpg 1 121 183 138 138
0050_0118_0024_0081_0081.jpg 1 118 24 81 81
