0001_0049_0100_0084_0084.jpg 1 49 100 84 84
0002_0097_0132_0057_0057.jpg 1 97 132 57 57
0003_0290_0041_0177_0177.jpg 1 290 41 177 177
0004_0216_0061_0066_0066.jpg 1 216 61 66 66
0005_0185_0170_0238_0238.jpg 1 185 170 238 238
0006_0143_0153_0135_0135.jpg 1 143 153 135 135
0007_0122_0293_0134_0134.jpg 1 122 293 134 134
0008_0296_0111_0214_0214.jpg 1 296 111 214 214
0009_0095_0180_0278_0278.jpg 1 95 180 278 278
0010_0119_0032_0268_0268.jpg 1 119 32 268 268
0011_0125_0117_0093_0093.jpg 1 125 117 93 93
0012_0109_0102_0277_0277.jpg 1 109 102 277 277
0013_0062_0017_0104_0104.jpg 1 62 17 104 104
0014_0100_0015_0102_0102.jpg 1 100 15 102 102
0015_0117_0040_0257_0257.jpg 1 117 40 257 257
0016_0058_0317_0214_0214.jpg 1 58 317 214 214
0017_0109_0036_0111_0111.jpg 1 109 36 111 111
0018_0024_0073_0120_0120.jpg 1 24 73 120 120
0019_0421_0067_0116_0116.jpg 1 421 67 116 116
0020_0057_0048_0129_0129.jpg 1 57 48 129 129
0021_0185_0170_0129_0129.jpg 1 185 170 129 129
0022_0214_0031_0334_0334.jpg 1 214 31 334 334
0023_0136_0093_0086_0086.jpg 1 136 93 86 86
0024_0073_0129_0070_0070.jpg 1 73 129 70 70
0025_0075_0059_0059_0059.jpg 1 75 59 59 59
0026_0071_0051_0158_0158.jpg 1 71 51 158 158
0027_0054_0047_0141_0141.jpg 1 54 47 141 141
0028_0042_0033_0163_0163.jpg 1 42 33 163 163
0029_0031_0089_0133_0133.jpg 1 31 89 133 133
0030_0052_0050_0147_0147.jpg 1 52 50 147 147
0031_0149_0086_0069_0069.jpg 1 149 86 69 69
0032_0253_0166_0280_0280.jpg 1 253 166 280 280
0033_0153_0020_0335_0335.jpg 1 153 20 335 335
0034_0107_0058_0125_0125.jpg 1 107 58 125 125
0035_0098_0043_0135_0135.jpg 1 98 43 135 135
0036_0213_0072_0294_0294.jpg 1 213 72 294 294
0037_0175_0064_0082_0082.jpg 1 175 64 82 82
0038_0099_0126_0317_0317.jpg 1 99 126 317 317
0039_0040_0052_0077_0077.jpg 1 40 52 77 77
0040_0101_0083_0080_0080.jpg 1 101 83 80 80
0041_0077_0075_0094_0094.jpg 1 77 75 94 94
0042_0254_0084_0325_0325.jpg 1 254 84 325 325
0043_0103_0201_0101_0101.jpg 1 103 201 101 101
0044_0160_0231_0287_0287.jpg 1 160 231 287 287
0045_0252_0113_0261_0261.jpg 1 252 113 261 261
0046_0076_0069_0330_0330.jpg 1 76 69 330 330
0047_0067_0032_0161_0161.jpg 1 67 32 161 161
0048_0131_0097_0259_0259.jpg 1 131 97 259 259
0049_0150_0128_0331_0331.jpg 1 150 128 331 331
0050_0016_0079_0096_0096.jpg 1 16 79 96 96
